VWA_controller/RESULT.vcd
$date
     Jun 17, 2020       03:58:53
$end

$version
 SystemC 2.3.3-Accellera --- May 21 2020 16:59:07
$end

$timescale
     1 ps
$end

$scope module SystemC $end
$var wire   32  aaaaa  cycle_count [31:0]  $end
$var wire   32  aaaab  stage3_rst_count [31:0]  $end
$var wire   32  aaaac  tile_count_col [31:0]  $end
$var wire   32  aaaaf  inputsramout_data(0)(0) [31:0]  $end
$var wire   32  aaaag  inputsramout_data(0)(1) [31:0]  $end
$var wire   32  aaaah  inputsramout_data(0)(2) [31:0]  $end
$var wire   32  aaaai  inputsramout_data(0)(3) [31:0]  $end
$var wire   32  aaaaj  inputsramout_data(0)(4) [31:0]  $end
$var wire   32  aaaak  inputsramout_data(0)(5) [31:0]  $end
$var wire   32  aaaal  inputsramout_data(0)(6) [31:0]  $end
$var wire   32  aaaam  inputsramout_data(7)(0) [31:0]  $end
$var wire   32  aaaan  inputsramout_data(7)(1) [31:0]  $end
$var wire   32  aaaao  inputsramout_data(7)(2) [31:0]  $end
$var wire   32  aaaap  inputsramout_data(7)(3) [31:0]  $end
$var wire   32  aaaaq  inputsramout_data(7)(4) [31:0]  $end
$var wire   32  aaaar  inputsramout_data(7)(5) [31:0]  $end
$var wire   32  aaaas  inputsramout_data(7)(6) [31:0]  $end
$var wire   32  aaaeh  tree_adder(8) [31:0]  $end
$var wire   32  aaaei  tree_adder(7) [31:0]  $end
$var wire   32  aaaej  tree_adder(6) [31:0]  $end
$var wire   32  aaaek  tree_adder(5) [31:0]  $end
$var wire   32  aaael  tree_adder(4) [31:0]  $end
$var wire   32  aaaem  tree_adder(3) [31:0]  $end
$var wire   32  aaaen  tree_adder(2) [31:0]  $end
$var wire   32  aaaeo  tree_adder(1) [31:0]  $end
$var wire   32  aaaep  tree_adder(0) [31:0]  $end
$var wire   32  aaaer  pe8_input(6) [31:0]  $end
$var wire   32  aaaes  pe8_input(5) [31:0]  $end
$var wire   32  aaaet  pe8_input(4) [31:0]  $end
$var wire   32  aaaeu  pe8_input(3) [31:0]  $end
$var wire   32  aaaev  pe8_input(2) [31:0]  $end
$var wire   32  aaaew  pe8_input(1) [31:0]  $end
$var wire   32  aaaex  pe8_input(0) [31:0]  $end
$var wire   32  aaaey  pe7_input(6) [31:0]  $end
$var wire   32  aaaez  pe7_input(5) [31:0]  $end
$var wire   32  aaafa  pe7_input(4) [31:0]  $end
$var wire   32  aaafb  pe7_input(3) [31:0]  $end
$var wire   32  aaafc  pe7_input(2) [31:0]  $end
$var wire   32  aaafd  pe7_input(1) [31:0]  $end
$var wire   32  aaafe  pe7_input(0) [31:0]  $end
$var wire   32  aaaff  pe6_input(6) [31:0]  $end
$var wire   32  aaafg  pe6_input(5) [31:0]  $end
$var wire   32  aaafh  pe6_input(4) [31:0]  $end
$var wire   32  aaafi  pe6_input(3) [31:0]  $end
$var wire   32  aaafj  pe6_input(2) [31:0]  $end
$var wire   32  aaafk  pe6_input(1) [31:0]  $end
$var wire   32  aaafl  pe6_input(0) [31:0]  $end
$var wire   32  aaafm  pe5_input(6) [31:0]  $end
$var wire   32  aaafn  pe5_input(5) [31:0]  $end
$var wire   32  aaafo  pe5_input(4) [31:0]  $end
$var wire   32  aaafp  pe5_input(3) [31:0]  $end
$var wire   32  aaafq  pe5_input(2) [31:0]  $end
$var wire   32  aaafr  pe5_input(1) [31:0]  $end
$var wire   32  aaafs  pe5_input(0) [31:0]  $end
$var wire   32  aaaft  pe4_input(6) [31:0]  $end
$var wire   32  aaafu  pe4_input(5) [31:0]  $end
$var wire   32  aaafv  pe4_input(4) [31:0]  $end
$var wire   32  aaafw  pe4_input(3) [31:0]  $end
$var wire   32  aaafx  pe4_input(2) [31:0]  $end
$var wire   32  aaafy  pe4_input(1) [31:0]  $end
$var wire   32  aaafz  pe4_input(0) [31:0]  $end
$var wire   32  aaaga  buffer3(8) [31:0]  $end
$var wire   32  aaagb  buffer3(7) [31:0]  $end
$var wire   32  aaagc  buffer3(6) [31:0]  $end
$var wire   32  aaagd  buffer3(5) [31:0]  $end
$var wire   32  aaage  buffer3(4) [31:0]  $end
$var wire   32  aaagf  buffer3(3) [31:0]  $end
$var wire   32  aaagg  buffer3(2) [31:0]  $end
$var wire   32  aaagh  buffer3(1) [31:0]  $end
$var wire   32  aaagi  buffer3(0) [31:0]  $end
$var wire   32  aaagj  pe3_input(6) [31:0]  $end
$var wire   32  aaagk  pe3_input(5) [31:0]  $end
$var wire   32  aaagl  pe3_input(4) [31:0]  $end
$var wire   32  aaagm  pe3_input(3) [31:0]  $end
$var wire   32  aaagn  pe3_input(2) [31:0]  $end
$var wire   32  aaago  pe3_input(1) [31:0]  $end
$var wire   32  aaagp  pe3_input(0) [31:0]  $end
$var wire   32  aaagq  buffer2(8) [31:0]  $end
$var wire   32  aaagr  buffer2(7) [31:0]  $end
$var wire   32  aaags  buffer2(6) [31:0]  $end
$var wire   32  aaagt  buffer2(5) [31:0]  $end
$var wire   32  aaagu  buffer2(4) [31:0]  $end
$var wire   32  aaagv  buffer2(3) [31:0]  $end
$var wire   32  aaagw  buffer2(2) [31:0]  $end
$var wire   32  aaagx  buffer2(1) [31:0]  $end
$var wire   32  aaagy  buffer2(0) [31:0]  $end
$var wire   32  aaagz  pe2_input(6) [31:0]  $end
$var wire   32  aaaha  pe2_input(5) [31:0]  $end
$var wire   32  aaahb  pe2_input(4) [31:0]  $end
$var wire   32  aaahc  pe2_input(3) [31:0]  $end
$var wire   32  aaahd  pe2_input(2) [31:0]  $end
$var wire   32  aaahe  pe2_input(1) [31:0]  $end
$var wire   32  aaahf  pe2_input(0) [31:0]  $end
$var wire   32  aaahg  buffer(8) [31:0]  $end
$var wire   32  aaahh  buffer(8) [31:0]  $end
$var wire   32  aaahi  buffer(7) [31:0]  $end
$var wire   32  aaahj  buffer(7) [31:0]  $end
$var wire   32  aaahk  buffer(6) [31:0]  $end
$var wire   32  aaahl  buffer(6) [31:0]  $end
$var wire   32  aaahm  buffer(5) [31:0]  $end
$var wire   32  aaahn  buffer(5) [31:0]  $end
$var wire   32  aaaho  buffer(4) [31:0]  $end
$var wire   32  aaahp  buffer(4) [31:0]  $end
$var wire   32  aaahq  buffer(3) [31:0]  $end
$var wire   32  aaahr  buffer(3) [31:0]  $end
$var wire   32  aaahs  buffer(2) [31:0]  $end
$var wire   32  aaaht  buffer(2) [31:0]  $end
$var wire   32  aaahu  buffer(1) [31:0]  $end
$var wire   32  aaahv  buffer(1) [31:0]  $end
$var wire   32  aaahw  buffer(0) [31:0]  $end
$var wire   32  aaahx  buffer(0) [31:0]  $end
$var wire   32  aaahy  weight(2) [31:0]  $end
$var wire   32  aaahz  weight(1) [31:0]  $end
$var wire   32  aaaia  weight(0) [31:0]  $end
$var wire   32  aaaib  pe1_input(6) [31:0]  $end
$var wire   32  aaaic  input(6) [31:0]  $end
$var wire   32  aaaid  pe1_input(5) [31:0]  $end
$var wire   32  aaaie  input(5) [31:0]  $end
$var wire   32  aaaif  pe1_input(4) [31:0]  $end
$var wire   32  aaaig  input(4) [31:0]  $end
$var wire   32  aaaih  pe1_input(3) [31:0]  $end
$var wire   32  aaaii  input(3) [31:0]  $end
$var wire   32  aaaij  pe1_input(2) [31:0]  $end
$var wire   32  aaaik  input(2) [31:0]  $end
$var wire   32  aaail  pe1_input(1) [31:0]  $end
$var wire   32  aaaim  input(1) [31:0]  $end
$var wire   32  aaain  pe1_input(0) [31:0]  $end
$var wire   32  aaaio  input(0) [31:0]  $end
$var wire    1  aaaip  dma_done       $end
$var wire    1  aaajc  stage3_rst       $end
$var wire    1  aaajd  stage1_rst       $end
$var wire   32  aaaje  ctrl2 [31:0]  $end
$var wire   32  aaajf  input_col [31:0]  $end
$var wire    1  aaajg  PE_input_ctrl(0)(7)       $end
$var wire    1  aaajh  PE_input_ctrl(0)(6)       $end
$var wire    1  aaaji  PE_input_ctrl(0)(5)       $end
$var wire    1  aaajj  PE_input_ctrl(0)(4)       $end
$var wire    1  aaajk  PE_input_ctrl(0)(3)       $end
$var wire    1  aaajl  PE_input_ctrl(0)(2)       $end
$var wire    1  aaajm  PE_input_ctrl(0)(1)       $end
$var wire    1  aaajn  PE_input_ctrl(0)(0)       $end
$var wire   32  aaajo  boundary_write_addr [31:0]  $end
$var wire   32  aaajp  boundary_read_addr [31:0]  $end
$var wire    1  aaajq  write_boundary       $end
$var wire    1  aaajr  read_boundary       $end
$var wire    1  aaajs  write_to_pe       $end
$var wire   32  aaajt  input_ch [31:0]  $end
$var wire    1  aaaju  start       $end
$var wire    1  aaajv  rst       $end
$var wire    1  aaajw  clk       $end
$scope module Accumulator_First $end
$var wire   32  aaaad  shift_regs(0)(0) [31:0]  $end
$var wire   32  aaaae  out_regs(0) [31:0]  $end
$var wire   32  aaaeq  output(0) [31:0]  $end
$upscope $end
$scope module Accumulator_First1 $end
$var wire   32  aaabb  shift_regs(2)(0) [31:0]  $end
$var wire   32  aaabc  shift_regs(2)(1) [31:0]  $end
$var wire   32  aaabd  shift_regs(2)(2) [31:0]  $end
$var wire   32  aaabe  shift_regs(2)(3) [31:0]  $end
$var wire   32  aaabf  shift_regs(0)(0) [31:0]  $end
$var wire   32  aaabg  shift_regs(0)(1) [31:0]  $end
$var wire   32  aaabh  shift_regs(0)(2) [31:0]  $end
$var wire   32  aaabi  shift_regs(0)(3) [31:0]  $end
$upscope $end
$scope module Accumulator_First2 $end
$var wire   32  aaabj  shift_regs(2)(0) [31:0]  $end
$var wire   32  aaabk  shift_regs(2)(1) [31:0]  $end
$var wire   32  aaabl  shift_regs(2)(2) [31:0]  $end
$var wire   32  aaabm  shift_regs(2)(3) [31:0]  $end
$var wire   32  aaabn  shift_regs(0)(0) [31:0]  $end
$upscope $end
$scope module Accumulator_First3 $end
$var wire   32  aaabo  shift_regs(2)(0) [31:0]  $end
$var wire   32  aaabp  shift_regs(2)(1) [31:0]  $end
$var wire   32  aaabq  shift_regs(2)(2) [31:0]  $end
$var wire   32  aaabr  shift_regs(2)(3) [31:0]  $end
$var wire   32  aaabs  shift_regs(0)(0) [31:0]  $end
$upscope $end
$scope module Accumulator_First4 $end
$var wire   32  aaabt  shift_regs(2)(0) [31:0]  $end
$var wire   32  aaabu  shift_regs(2)(1) [31:0]  $end
$var wire   32  aaabv  shift_regs(2)(2) [31:0]  $end
$var wire   32  aaabw  shift_regs(2)(3) [31:0]  $end
$var wire   32  aaabx  shift_regs(0)(0) [31:0]  $end
$upscope $end
$scope module Accumulator_First5 $end
$var wire   32  aaaby  shift_regs(2)(0) [31:0]  $end
$var wire   32  aaabz  shift_regs(2)(1) [31:0]  $end
$var wire   32  aaaca  shift_regs(2)(2) [31:0]  $end
$var wire   32  aaacb  shift_regs(2)(3) [31:0]  $end
$var wire   32  aaacc  shift_regs(0)(0) [31:0]  $end
$upscope $end
$scope module Accumulator_First6 $end
$var wire   32  aaacd  shift_regs(2)(0) [31:0]  $end
$var wire   32  aaace  shift_regs(2)(1) [31:0]  $end
$var wire   32  aaacf  shift_regs(2)(2) [31:0]  $end
$var wire   32  aaacg  shift_regs(2)(3) [31:0]  $end
$var wire   32  aaach  shift_regs(0)(0) [31:0]  $end
$upscope $end
$scope module Accumulator_First7 $end
$var wire   32  aaaci  shift_regs(2)(0) [31:0]  $end
$var wire   32  aaacj  shift_regs(2)(1) [31:0]  $end
$var wire   32  aaack  shift_regs(2)(2) [31:0]  $end
$var wire   32  aaacl  shift_regs(2)(3) [31:0]  $end
$var wire   32  aaacm  shift_regs(0)(0) [31:0]  $end
$upscope $end
$scope module Accumulator_First8 $end
$var wire   32  aaacn  shift_regs(2)(0) [31:0]  $end
$var wire   32  aaaco  shift_regs(2)(1) [31:0]  $end
$var wire   32  aaacp  shift_regs(2)(2) [31:0]  $end
$var wire   32  aaacq  shift_regs(2)(3) [31:0]  $end
$var wire   32  aaacr  shift_regs(0)(0) [31:0]  $end
$upscope $end
$scope module Accumulator_Third $end
$var wire   32  aaacs  shift_regs(0)(0) [31:0]  $end
$var wire   32  aaact  shift_regs(0)(1) [31:0]  $end
$var wire   32  aaacu  shift_regs(0)(2) [31:0]  $end
$var wire   32  aaacv  shift_regs(0)(3) [31:0]  $end
$var wire   32  aaacw  shift_regs(0)(4) [31:0]  $end
$var wire   32  aaacx  shift_regs(1)(0) [31:0]  $end
$var wire   32  aaacy  shift_regs(1)(1) [31:0]  $end
$var wire   32  aaacz  shift_regs(1)(2) [31:0]  $end
$var wire   32  aaada  shift_regs(1)(3) [31:0]  $end
$var wire   32  aaadb  shift_regs(1)(4) [31:0]  $end
$var wire   32  aaadc  shift_regs(2)(0) [31:0]  $end
$var wire   32  aaadd  shift_regs(2)(1) [31:0]  $end
$var wire   32  aaade  shift_regs(2)(2) [31:0]  $end
$var wire   32  aaadf  shift_regs(2)(3) [31:0]  $end
$var wire   32  aaadg  shift_regs(2)(4) [31:0]  $end
$var wire   32  aaadh  shift_regs(3)(0) [31:0]  $end
$var wire   32  aaadi  shift_regs(3)(1) [31:0]  $end
$var wire   32  aaadj  shift_regs(3)(2) [31:0]  $end
$var wire   32  aaadk  shift_regs(3)(3) [31:0]  $end
$var wire   32  aaadl  shift_regs(7)(0) [31:0]  $end
$var wire   32  aaadm  shift_regs(7)(1) [31:0]  $end
$var wire   32  aaadn  shift_regs(7)(2) [31:0]  $end
$var wire   32  aaado  shift_regs(7)(3) [31:0]  $end
$var wire   32  aaadp  shift_regs(8)(0) [31:0]  $end
$var wire   32  aaadq  shift_regs(8)(1) [31:0]  $end
$var wire   32  aaadr  shift_regs(8)(2) [31:0]  $end
$var wire   32  aaads  shift_regs(8)(3) [31:0]  $end
$var wire   32  aaadt  shift_regs(3)(4) [31:0]  $end
$var wire   32  aaadu  output_s(1) [31:0]  $end
$var wire   32  aaadv  output_s(0) [31:0]  $end
$var wire   32  aaadw  output(6) [31:0]  $end
$var wire   32  aaadx  output(5) [31:0]  $end
$var wire   32  aaady  output(4) [31:0]  $end
$var wire   32  aaadz  output(3) [31:0]  $end
$var wire   32  aaaea  output(2) [31:0]  $end
$var wire   32  aaaeb  output(1) [31:0]  $end
$var wire   32  aaaec  output(0) [31:0]  $end
$var wire   32  aaaed  input_S(1) [31:0]  $end
$var wire   32  aaaee  input_S(0) [31:0]  $end
$var wire   32  aaaef  input_T(2) [31:0]  $end
$var wire   32  aaaeg  input_T(2) [31:0]  $end
$upscope $end
$scope module boundarysram $end
$var wire   32  aaaat  boundary(0)(0) [31:0]  $end
$var wire   32  aaaau  boundary(0)(1) [31:0]  $end
$var wire   32  aaaav  boundary(0)(2) [31:0]  $end
$var wire   32  aaaaw  boundary(0)(3) [31:0]  $end
$var wire   32  aaaax  boundary(0)(4) [31:0]  $end
$var wire   32  aaaay  boundary(0)(5) [31:0]  $end
$var wire   32  aaaaz  boundary(0)(6) [31:0]  $end
$var wire   32  aaaba  boundary(0)(7) [31:0]  $end
$var wire   32  aaaiq  out_data(1) [31:0]  $end
$var wire   32  aaair  out_data(0) [31:0]  $end
$var wire   32  aaais  in_data(1) [31:0]  $end
$var wire   32  aaait  in_data(0) [31:0]  $end
$upscope $end
$scope module inputsram $end
$var wire   32  aaaiu  data(6) [31:0]  $end
$var wire   32  aaaiv  data(5) [31:0]  $end
$var wire   32  aaaiw  data(4) [31:0]  $end
$var wire   32  aaaix  data(3) [31:0]  $end
$var wire   32  aaaiy  data(2) [31:0]  $end
$var wire   32  aaaiz  data(1) [31:0]  $end
$var wire   32  aaaja  data(0) [31:0]  $end
$var wire    1  aaajb  dma_write       $end
$upscope $end
$upscope $end
$enddefinitions  $end

$comment
All initial values are dumped below at time 0 sec = 0 timescale units.
$end

$dumpvars
b0 aaaaa
b0 aaaab
b1 aaaac
b0 aaaad
b0 aaaae
b0 aaaaf
b0 aaaag
b0 aaaah
b0 aaaai
b0 aaaaj
b0 aaaak
b0 aaaal
b0 aaaam
b0 aaaan
b0 aaaao
b0 aaaap
b0 aaaaq
b0 aaaar
b0 aaaas
b0 aaaat
b0 aaaau
b0 aaaav
b0 aaaaw
b0 aaaax
b0 aaaay
b0 aaaaz
b0 aaaba
b0 aaabb
b0 aaabc
b0 aaabd
b0 aaabe
b0 aaabf
b0 aaabg
b0 aaabh
b0 aaabi
b0 aaabj
b0 aaabk
b0 aaabl
b0 aaabm
b0 aaabn
b0 aaabo
b0 aaabp
b0 aaabq
b0 aaabr
b0 aaabs
b0 aaabt
b0 aaabu
b0 aaabv
b0 aaabw
b0 aaabx
b0 aaaby
b0 aaabz
b0 aaaca
b0 aaacb
b0 aaacc
b0 aaacd
b0 aaace
b0 aaacf
b0 aaacg
b0 aaach
b0 aaaci
b0 aaacj
b0 aaack
b0 aaacl
b0 aaacm
b0 aaacn
b0 aaaco
b0 aaacp
b0 aaacq
b0 aaacr
b0 aaacs
b0 aaact
b0 aaacu
b0 aaacv
b0 aaacw
b0 aaacx
b0 aaacy
b0 aaacz
b0 aaada
b0 aaadb
b0 aaadc
b0 aaadd
b0 aaade
b0 aaadf
b0 aaadg
b0 aaadh
b0 aaadi
b0 aaadj
b0 aaadk
b0 aaadl
b0 aaadm
b0 aaadn
b0 aaado
b0 aaadp
b0 aaadq
b0 aaadr
b0 aaads
b0 aaadt
b0 aaadu
b0 aaadv
b0 aaadw
b0 aaadx
b0 aaady
b0 aaadz
b0 aaaea
b0 aaaeb
b0 aaaec
b0 aaaed
b0 aaaee
b0 aaaef
b0 aaaeg
b0 aaaeh
b0 aaaei
b0 aaaej
b0 aaaek
b0 aaael
b0 aaaem
b0 aaaen
b0 aaaeo
b0 aaaep
b0 aaaeq
b0 aaaer
b0 aaaes
b0 aaaet
b0 aaaeu
b0 aaaev
b0 aaaew
b0 aaaex
b0 aaaey
b0 aaaez
b0 aaafa
b0 aaafb
b0 aaafc
b0 aaafd
b0 aaafe
b0 aaaff
b0 aaafg
b0 aaafh
b0 aaafi
b0 aaafj
b0 aaafk
b0 aaafl
b0 aaafm
b0 aaafn
b0 aaafo
b0 aaafp
b0 aaafq
b0 aaafr
b0 aaafs
b0 aaaft
b0 aaafu
b0 aaafv
b0 aaafw
b0 aaafx
b0 aaafy
b0 aaafz
b0 aaaga
b0 aaagb
b0 aaagc
b0 aaagd
b0 aaage
b0 aaagf
b0 aaagg
b0 aaagh
b0 aaagi
b0 aaagj
b0 aaagk
b0 aaagl
b0 aaagm
b0 aaagn
b0 aaago
b0 aaagp
b0 aaagq
b0 aaagr
b0 aaags
b0 aaagt
b0 aaagu
b0 aaagv
b0 aaagw
b0 aaagx
b0 aaagy
b0 aaagz
b0 aaaha
b0 aaahb
b0 aaahc
b0 aaahd
b0 aaahe
b0 aaahf
b0 aaahg
b0 aaahh
b0 aaahi
b0 aaahj
b0 aaahk
b0 aaahl
b0 aaahm
b0 aaahn
b0 aaaho
b0 aaahp
b0 aaahq
b0 aaahr
b0 aaahs
b0 aaaht
b0 aaahu
b0 aaahv
b0 aaahw
b0 aaahx
b0 aaahy
b0 aaahz
b0 aaaia
b0 aaaib
b0 aaaic
b0 aaaid
b0 aaaie
b0 aaaif
b0 aaaig
b0 aaaih
b0 aaaii
b0 aaaij
b0 aaaik
b0 aaail
b0 aaaim
b0 aaain
b0 aaaio
0aaaip
b0 aaaiq
b0 aaair
b0 aaais
b0 aaait
b0 aaaiu
b0 aaaiv
b0 aaaiw
b0 aaaix
b0 aaaiy
b0 aaaiz
b0 aaaja
0aaajb
0aaajc
0aaajd
b100 aaaje
b0 aaajf
0aaajg
0aaajh
0aaaji
0aaajj
0aaajk
0aaajl
0aaajm
0aaajn
b0 aaajo
b0 aaajp
0aaajq
0aaajr
0aaajs
b10000 aaajt
0aaaju
0aaajv
1aaajw
$end

#5000
0aaajw

#10000
1aaajc
1aaajd
1aaaju
1aaajv
1aaajw

#15000
0aaajw

#20000
1aaajw

#25000
0aaajw

#30000
1aaajw

#35000
0aaajw

#40000
1aaajw

#45000
0aaajw

#50000
1aaajw

#55000
0aaajw

#60000
1aaajw

#65000
0aaajw

#70000
1aaajw

#75000
0aaajw

#80000
1aaajw

#85000
0aaajw

#90000
1aaajw

#95000
0aaajw

#100000
b110 aaaiu
b101 aaaiv
b100 aaaiw
b11 aaaix
b10 aaaiy
b1 aaaiz
1aaajb
1aaajw

#105000
0aaajw

#110000
0aaajb
1aaajw

#115000
0aaajw

#120000
1aaajw

#125000
0aaajw

#130000
b11000 aaaiu
b10111 aaaiv
b10110 aaaiw
b10101 aaaix
b10100 aaaiy
b10011 aaaiz
b10010 aaaja
1aaajb
1aaajw

#135000
0aaajw

#140000
0aaajb
1aaajw

#145000
0aaajw

#150000
1aaajw

#155000
0aaajw

#160000
b101010 aaaiu
b101001 aaaiv
b101000 aaaiw
b100111 aaaix
b100110 aaaiy
b100101 aaaiz
b100100 aaaja
1aaajb
1aaajw

#165000
0aaajw

#170000
0aaajb
1aaajw

#175000
0aaajw

#180000
1aaajw

#185000
0aaajw

#190000
b111100 aaaiu
b111011 aaaiv
b111010 aaaiw
b111001 aaaix
b111000 aaaiy
b110111 aaaiz
b110110 aaaja
1aaajb
1aaajw

#195000
0aaajw

#200000
0aaajb
1aaajw

#205000
0aaajw

#210000
1aaajw

#215000
0aaajw

#220000
b1001110 aaaiu
b1001101 aaaiv
b1001100 aaaiw
b1001011 aaaix
b1001010 aaaiy
b1001001 aaaiz
b1001000 aaaja
1aaajb
1aaajw

#225000
0aaajw

#230000
0aaajb
1aaajw

#235000
0aaajw

#240000
1aaajw

#245000
0aaajw

#250000
b1100000 aaaiu
b1011111 aaaiv
b1011110 aaaiw
b1011101 aaaix
b1011100 aaaiy
b1011011 aaaiz
b1011010 aaaja
1aaajb
1aaajw

#255000
0aaajw

#260000
0aaajb
1aaajw

#265000
0aaajw

#270000
1aaajw

#275000
0aaajw

#280000
b101001010 aaaiu
b101001001 aaaiv
b101001000 aaaiw
b101000111 aaaix
b101000110 aaaiy
b101000101 aaaiz
b101000100 aaaja
1aaajb
1aaajw

#285000
0aaajw

#290000
0aaajb
1aaajw

#295000
0aaajw

#300000
1aaajw

#305000
0aaajw

#310000
b101011100 aaaiu
b101011011 aaaiv
b101011010 aaaiw
b101011001 aaaix
b101011000 aaaiy
b101010111 aaaiz
b101010110 aaaja
1aaajb
1aaajw

#315000
0aaajw

#320000
0aaajb
1aaajw

#325000
0aaajw

#330000
1aaajw

#335000
0aaajw

#340000
b101101110 aaaiu
b101101101 aaaiv
b101101100 aaaiw
b101101011 aaaix
b101101010 aaaiy
b101101001 aaaiz
b101101000 aaaja
1aaajb
1aaajw

#345000
0aaajw

#350000
0aaajb
1aaajw

#355000
0aaajw

#360000
1aaajw

#365000
0aaajw

#370000
b110000000 aaaiu
b101111111 aaaiv
b101111110 aaaiw
b101111101 aaaix
b101111100 aaaiy
b101111011 aaaiz
b101111010 aaaja
1aaajb
1aaajw

#375000
0aaajw

#380000
0aaajb
1aaajw

#385000
0aaajw

#390000
1aaajw

#395000
0aaajw

#400000
b110010010 aaaiu
b110010001 aaaiv
b110010000 aaaiw
b110001111 aaaix
b110001110 aaaiy
b110001101 aaaiz
b110001100 aaaja
1aaajb
1aaajw

#405000
0aaajw

#410000
0aaajb
1aaajw

#415000
0aaajw

#420000
1aaajw

#425000
0aaajw

#430000
b110100100 aaaiu
b110100011 aaaiv
b110100010 aaaiw
b110100001 aaaix
b110100000 aaaiy
b110011111 aaaiz
b110011110 aaaja
1aaajb
1aaajw

#435000
0aaajw

#440000
0aaajb
1aaajw

#445000
0aaajw

#450000
1aaajw

#455000
0aaajw

#460000
b1010001110 aaaiu
b1010001101 aaaiv
b1010001100 aaaiw
b1010001011 aaaix
b1010001010 aaaiy
b1010001001 aaaiz
b1010001000 aaaja
1aaajb
1aaajw

#465000
0aaajw

#470000
0aaajb
1aaajw

#475000
0aaajw

#480000
1aaajw

#485000
0aaajw

#490000
b1010100000 aaaiu
b1010011111 aaaiv
b1010011110 aaaiw
b1010011101 aaaix
b1010011100 aaaiy
b1010011011 aaaiz
b1010011010 aaaja
1aaajb
1aaajw

#495000
0aaajw

#500000
0aaajb
1aaajw

#505000
0aaajw

#510000
1aaajw

#515000
0aaajw

#520000
b1010110010 aaaiu
b1010110001 aaaiv
b1010110000 aaaiw
b1010101111 aaaix
b1010101110 aaaiy
b1010101101 aaaiz
b1010101100 aaaja
1aaajb
1aaajw

#525000
0aaajw

#530000
0aaajb
1aaajw

#535000
0aaajw

#540000
1aaajw

#545000
0aaajw

#550000
b1011000100 aaaiu
b1011000011 aaaiv
b1011000010 aaaiw
b1011000001 aaaix
b1011000000 aaaiy
b1010111111 aaaiz
b1010111110 aaaja
1aaajb
1aaajw

#555000
0aaajw

#560000
0aaajb
1aaajw

#565000
0aaajw

#570000
1aaajw

#575000
0aaajw

#580000
b1011010110 aaaiu
b1011010101 aaaiv
b1011010100 aaaiw
b1011010011 aaaix
b1011010010 aaaiy
b1011010001 aaaiz
b1011010000 aaaja
1aaajb
1aaajw

#585000
0aaajw

#590000
0aaajb
1aaajw

#595000
0aaajw

#600000
1aaajw

#605000
0aaajw

#610000
b1011101000 aaaiu
b1011100111 aaaiv
b1011100110 aaaiw
b1011100101 aaaix
b1011100100 aaaiy
b1011100011 aaaiz
b1011100010 aaaja
1aaajb
1aaajw

#615000
0aaajw

#620000
0aaajb
1aaajw

#625000
0aaajw

#630000
1aaajw

#635000
0aaajw

#640000
b1111010010 aaaiu
b1111010001 aaaiv
b1111010000 aaaiw
b1111001111 aaaix
b1111001110 aaaiy
b1111001101 aaaiz
b1111001100 aaaja
1aaajb
1aaajw

#645000
0aaajw

#650000
0aaajb
1aaajw

#655000
0aaajw

#660000
1aaajw

#665000
0aaajw

#670000
b1111100100 aaaiu
b1111100011 aaaiv
b1111100010 aaaiw
b1111100001 aaaix
b1111100000 aaaiy
b1111011111 aaaiz
b1111011110 aaaja
1aaajb
1aaajw

#675000
0aaajw

#680000
0aaajb
1aaajw

#685000
0aaajw

#690000
1aaajw

#695000
0aaajw

#700000
b1111110110 aaaiu
b1111110101 aaaiv
b1111110100 aaaiw
b1111110011 aaaix
b1111110010 aaaiy
b1111110001 aaaiz
b1111110000 aaaja
1aaajb
1aaajw

#705000
0aaajw

#710000
0aaajb
1aaajw

#715000
0aaajw

#720000
1aaajw

#725000
0aaajw

#730000
b10000001000 aaaiu
b10000000111 aaaiv
b10000000110 aaaiw
b10000000101 aaaix
b10000000100 aaaiy
b10000000011 aaaiz
b10000000010 aaaja
1aaajb
1aaajw

#735000
0aaajw

#740000
0aaajb
1aaajw

#745000
0aaajw

#750000
1aaajw

#755000
0aaajw

#760000
b10000011010 aaaiu
b10000011001 aaaiv
b10000011000 aaaiw
b10000010111 aaaix
b10000010110 aaaiy
b10000010101 aaaiz
b10000010100 aaaja
1aaajb
1aaajw

#765000
0aaajw

#770000
0aaajb
1aaajw

#775000
0aaajw

#780000
1aaajw

#785000
0aaajw

#790000
1aaaip
b10000101100 aaaiu
b10000101011 aaaiv
b10000101010 aaaiw
b10000101001 aaaix
b10000101000 aaaiy
b10000100111 aaaiz
b10000100110 aaaja
1aaajb
1aaajw

#795000
0aaajw

#800000
0aaaip
0aaajb
1aaajw

#805000
0aaajw

#810000
1aaajw

#815000
0aaajw

#820000
1aaajw

#825000
0aaajw

#830000
1aaajw

#835000
0aaajw

#840000
1aaajw

#845000
0aaajw

#850000
b10100010110 aaaiu
b10100010101 aaaiv
b10100010100 aaaiw
b10100010011 aaaix
b10100010010 aaaiy
b10100010001 aaaiz
b10100010000 aaaja
1aaajb
1aaajw

#855000
0aaajw

#860000
0aaajb
1aaajw

#865000
0aaajw

#870000
1aaajw

#875000
0aaajw

#880000
b1100000 aaaiu
b1011111 aaaiv
b1011110 aaaiw
b1011101 aaaix
b1011100 aaaiy
b1011011 aaaiz
b1011010 aaaja
1aaajb
1aaajw

#885000
0aaajw

#890000
0aaajb
1aaajw

#895000
0aaajw

#900000
1aaajw

#905000
0aaajw

#910000
b1110010 aaaiu
b1110001 aaaiv
b1110000 aaaiw
b1101111 aaaix
b1101110 aaaiy
b1101101 aaaiz
b1101100 aaaja
1aaajb
1aaajw

#915000
0aaajw

#920000
0aaajb
1aaajw

#925000
0aaajw

#930000
1aaajw

#935000
0aaajw

#940000
b10000100 aaaiu
b10000011 aaaiv
b10000010 aaaiw
b10000001 aaaix
b10000000 aaaiy
b1111111 aaaiz
b1111110 aaaja
1aaajb
1aaajw

#945000
0aaajw

#950000
0aaajb
1aaajw

#955000
0aaajw

#960000
1aaajw

#965000
0aaajw

#970000
b10010110 aaaiu
b10010101 aaaiv
b10010100 aaaiw
b10010011 aaaix
b10010010 aaaiy
b10010001 aaaiz
b10010000 aaaja
1aaajb
1aaajw

#975000
0aaajw

#980000
0aaajb
1aaajw

#985000
0aaajw

#990000
1aaajw

#995000
0aaajw

#1000000
b10101000 aaaiu
b10100111 aaaiv
b10100110 aaaiw
b10100101 aaaix
b10100100 aaaiy
b10100011 aaaiz
b10100010 aaaja
1aaajb
1aaajw

#1005000
0aaajw

#1010000
0aaajb
1aaajw

#1015000
0aaajw

#1020000
1aaajw

#1025000
0aaajw

#1030000
b110010010 aaaiu
b110010001 aaaiv
b110010000 aaaiw
b110001111 aaaix
b110001110 aaaiy
b110001101 aaaiz
b110001100 aaaja
1aaajb
1aaajw

#1035000
0aaajw

#1040000
0aaajb
1aaajw

#1045000
0aaajw

#1050000
1aaajw

#1055000
0aaajw

#1060000
b110100100 aaaiu
b110100011 aaaiv
b110100010 aaaiw
b110100001 aaaix
b110100000 aaaiy
b110011111 aaaiz
b110011110 aaaja
1aaajb
1aaajw

#1065000
0aaajw

#1070000
0aaajb
1aaajw

#1075000
0aaajw

#1080000
1aaajw

#1085000
0aaajw

