VWA_controller/RESULT.vcd
$date
     Jun 17, 2020       06:01:26
$end

$version
 SystemC 2.3.3-Accellera --- May 21 2020 16:59:07
$end

$timescale
     1 ps
$end

$scope module SystemC $end
$var wire   32  aaaaa  cycle_count [31:0]  $end
$var wire   32  aaaab  stage3_rst_count [31:0]  $end
$var wire   32  aaaac  tile_count_col [31:0]  $end
$var wire   32  aaaaf  inputsramout_data(0)(0) [31:0]  $end
$var wire   32  aaaag  inputsramout_data(0)(1) [31:0]  $end
$var wire   32  aaaah  inputsramout_data(0)(2) [31:0]  $end
$var wire   32  aaaai  inputsramout_data(0)(3) [31:0]  $end
$var wire   32  aaaaj  inputsramout_data(0)(4) [31:0]  $end
$var wire   32  aaaak  inputsramout_data(0)(5) [31:0]  $end
$var wire   32  aaaal  inputsramout_data(0)(6) [31:0]  $end
$var wire   32  aaaam  inputsramout_data(7)(0) [31:0]  $end
$var wire   32  aaaan  inputsramout_data(7)(1) [31:0]  $end
$var wire   32  aaaao  inputsramout_data(7)(2) [31:0]  $end
$var wire   32  aaaap  inputsramout_data(7)(3) [31:0]  $end
$var wire   32  aaaaq  inputsramout_data(7)(4) [31:0]  $end
$var wire   32  aaaar  inputsramout_data(7)(5) [31:0]  $end
$var wire   32  aaaas  inputsramout_data(7)(6) [31:0]  $end
$var wire   32  aaaej  tree_adder(8) [31:0]  $end
$var wire   32  aaaek  tree_adder(7) [31:0]  $end
$var wire   32  aaael  tree_adder(6) [31:0]  $end
$var wire   32  aaaem  tree_adder(5) [31:0]  $end
$var wire   32  aaaen  tree_adder(4) [31:0]  $end
$var wire   32  aaaeo  tree_adder(3) [31:0]  $end
$var wire   32  aaaep  tree_adder(2) [31:0]  $end
$var wire   32  aaaeq  tree_adder(1) [31:0]  $end
$var wire   32  aaaer  tree_adder(0) [31:0]  $end
$var wire   32  aaaet  pe8_input(6) [31:0]  $end
$var wire   32  aaaeu  pe8_input(5) [31:0]  $end
$var wire   32  aaaev  pe8_input(4) [31:0]  $end
$var wire   32  aaaew  pe8_input(3) [31:0]  $end
$var wire   32  aaaex  pe8_input(2) [31:0]  $end
$var wire   32  aaaey  pe8_input(1) [31:0]  $end
$var wire   32  aaaez  pe8_input(0) [31:0]  $end
$var wire   32  aaafa  pe7_input(6) [31:0]  $end
$var wire   32  aaafb  pe7_input(5) [31:0]  $end
$var wire   32  aaafc  pe7_input(4) [31:0]  $end
$var wire   32  aaafd  pe7_input(3) [31:0]  $end
$var wire   32  aaafe  pe7_input(2) [31:0]  $end
$var wire   32  aaaff  pe7_input(1) [31:0]  $end
$var wire   32  aaafg  pe7_input(0) [31:0]  $end
$var wire   32  aaafh  pe6_input(6) [31:0]  $end
$var wire   32  aaafi  pe6_input(5) [31:0]  $end
$var wire   32  aaafj  pe6_input(4) [31:0]  $end
$var wire   32  aaafk  pe6_input(3) [31:0]  $end
$var wire   32  aaafl  pe6_input(2) [31:0]  $end
$var wire   32  aaafm  pe6_input(1) [31:0]  $end
$var wire   32  aaafn  pe6_input(0) [31:0]  $end
$var wire   32  aaafo  pe5_input(6) [31:0]  $end
$var wire   32  aaafp  pe5_input(5) [31:0]  $end
$var wire   32  aaafq  pe5_input(4) [31:0]  $end
$var wire   32  aaafr  pe5_input(3) [31:0]  $end
$var wire   32  aaafs  pe5_input(2) [31:0]  $end
$var wire   32  aaaft  pe5_input(1) [31:0]  $end
$var wire   32  aaafu  pe5_input(0) [31:0]  $end
$var wire   32  aaafv  pe4_input(6) [31:0]  $end
$var wire   32  aaafw  pe4_input(5) [31:0]  $end
$var wire   32  aaafx  pe4_input(4) [31:0]  $end
$var wire   32  aaafy  pe4_input(3) [31:0]  $end
$var wire   32  aaafz  pe4_input(2) [31:0]  $end
$var wire   32  aaaga  pe4_input(1) [31:0]  $end
$var wire   32  aaagb  pe4_input(0) [31:0]  $end
$var wire   32  aaagc  buffer3(8) [31:0]  $end
$var wire   32  aaagd  buffer3(7) [31:0]  $end
$var wire   32  aaage  buffer3(6) [31:0]  $end
$var wire   32  aaagf  buffer3(5) [31:0]  $end
$var wire   32  aaagg  buffer3(4) [31:0]  $end
$var wire   32  aaagh  buffer3(3) [31:0]  $end
$var wire   32  aaagi  buffer3(2) [31:0]  $end
$var wire   32  aaagj  buffer3(1) [31:0]  $end
$var wire   32  aaagk  buffer3(0) [31:0]  $end
$var wire   32  aaagl  pe3_input(6) [31:0]  $end
$var wire   32  aaagm  pe3_input(5) [31:0]  $end
$var wire   32  aaagn  pe3_input(4) [31:0]  $end
$var wire   32  aaago  pe3_input(3) [31:0]  $end
$var wire   32  aaagp  pe3_input(2) [31:0]  $end
$var wire   32  aaagq  pe3_input(1) [31:0]  $end
$var wire   32  aaagr  pe3_input(0) [31:0]  $end
$var wire   32  aaags  buffer2(8) [31:0]  $end
$var wire   32  aaagt  buffer2(7) [31:0]  $end
$var wire   32  aaagu  buffer2(6) [31:0]  $end
$var wire   32  aaagv  buffer2(5) [31:0]  $end
$var wire   32  aaagw  buffer2(4) [31:0]  $end
$var wire   32  aaagx  buffer2(3) [31:0]  $end
$var wire   32  aaagy  buffer2(2) [31:0]  $end
$var wire   32  aaagz  buffer2(1) [31:0]  $end
$var wire   32  aaaha  buffer2(0) [31:0]  $end
$var wire   32  aaahb  pe2_input(6) [31:0]  $end
$var wire   32  aaahc  pe2_input(5) [31:0]  $end
$var wire   32  aaahd  pe2_input(4) [31:0]  $end
$var wire   32  aaahe  pe2_input(3) [31:0]  $end
$var wire   32  aaahf  pe2_input(2) [31:0]  $end
$var wire   32  aaahg  pe2_input(1) [31:0]  $end
$var wire   32  aaahh  pe2_input(0) [31:0]  $end
$var wire   32  aaahi  buffer(8) [31:0]  $end
$var wire   32  aaahj  buffer(8) [31:0]  $end
$var wire   32  aaahk  buffer(7) [31:0]  $end
$var wire   32  aaahl  buffer(7) [31:0]  $end
$var wire   32  aaahm  buffer(6) [31:0]  $end
$var wire   32  aaahn  buffer(6) [31:0]  $end
$var wire   32  aaaho  buffer(5) [31:0]  $end
$var wire   32  aaahp  buffer(5) [31:0]  $end
$var wire   32  aaahq  buffer(4) [31:0]  $end
$var wire   32  aaahr  buffer(4) [31:0]  $end
$var wire   32  aaahs  buffer(3) [31:0]  $end
$var wire   32  aaaht  buffer(3) [31:0]  $end
$var wire   32  aaahu  buffer(2) [31:0]  $end
$var wire   32  aaahv  buffer(2) [31:0]  $end
$var wire   32  aaahw  buffer(1) [31:0]  $end
$var wire   32  aaahx  buffer(1) [31:0]  $end
$var wire   32  aaahy  buffer(0) [31:0]  $end
$var wire   32  aaahz  buffer(0) [31:0]  $end
$var wire   32  aaaia  weight(2) [31:0]  $end
$var wire   32  aaaib  weight(1) [31:0]  $end
$var wire   32  aaaic  weight(0) [31:0]  $end
$var wire   32  aaaid  pe1_input(6) [31:0]  $end
$var wire   32  aaaie  input(6) [31:0]  $end
$var wire   32  aaaif  pe1_input(5) [31:0]  $end
$var wire   32  aaaig  input(5) [31:0]  $end
$var wire   32  aaaih  pe1_input(4) [31:0]  $end
$var wire   32  aaaii  input(4) [31:0]  $end
$var wire   32  aaaij  pe1_input(3) [31:0]  $end
$var wire   32  aaaik  input(3) [31:0]  $end
$var wire   32  aaail  pe1_input(2) [31:0]  $end
$var wire   32  aaaim  input(2) [31:0]  $end
$var wire   32  aaain  pe1_input(1) [31:0]  $end
$var wire   32  aaaio  input(1) [31:0]  $end
$var wire   32  aaaip  pe1_input(0) [31:0]  $end
$var wire   32  aaaiq  input(0) [31:0]  $end
$var wire    1  aaajf  stage3_rst       $end
$var wire    1  aaajg  stage1_rst       $end
$var wire   32  aaajh  ctrl2 [31:0]  $end
$var wire   32  aaaji  input_col [31:0]  $end
$var wire    1  aaajj  PE_input_ctrl(0)(7)       $end
$var wire    1  aaajk  PE_input_ctrl(0)(6)       $end
$var wire    1  aaajl  PE_input_ctrl(0)(5)       $end
$var wire    1  aaajm  PE_input_ctrl(0)(4)       $end
$var wire    1  aaajn  PE_input_ctrl(0)(3)       $end
$var wire    1  aaajo  PE_input_ctrl(0)(2)       $end
$var wire    1  aaajp  PE_input_ctrl(0)(1)       $end
$var wire    1  aaajq  PE_input_ctrl(0)(0)       $end
$var wire   32  aaajr  boundary_write_addr [31:0]  $end
$var wire   32  aaajs  boundary_read_addr [31:0]  $end
$var wire    1  aaajt  write_boundary       $end
$var wire    1  aaaju  read_boundary       $end
$var wire    1  aaajv  write_to_pe       $end
$var wire   32  aaajw  input_ch [31:0]  $end
$var wire    1  aaajx  start       $end
$var wire    1  aaajy  rst       $end
$var wire    1  aaajz  clk       $end
$scope module Accumulator_First $end
$var wire   32  aaaad  shift_regs(0)(0) [31:0]  $end
$var wire   32  aaaae  out_regs(0) [31:0]  $end
$var wire   32  aaaes  output(0) [31:0]  $end
$upscope $end
$scope module Accumulator_First1 $end
$var wire   32  aaabd  shift_regs(2)(0) [31:0]  $end
$var wire   32  aaabe  shift_regs(2)(1) [31:0]  $end
$var wire   32  aaabf  shift_regs(2)(2) [31:0]  $end
$var wire   32  aaabg  shift_regs(2)(3) [31:0]  $end
$var wire   32  aaabh  shift_regs(0)(0) [31:0]  $end
$var wire   32  aaabi  shift_regs(0)(1) [31:0]  $end
$var wire   32  aaabj  shift_regs(0)(2) [31:0]  $end
$var wire   32  aaabk  shift_regs(0)(3) [31:0]  $end
$upscope $end
$scope module Accumulator_First2 $end
$var wire   32  aaabl  shift_regs(2)(0) [31:0]  $end
$var wire   32  aaabm  shift_regs(2)(1) [31:0]  $end
$var wire   32  aaabn  shift_regs(2)(2) [31:0]  $end
$var wire   32  aaabo  shift_regs(2)(3) [31:0]  $end
$var wire   32  aaabp  shift_regs(0)(0) [31:0]  $end
$upscope $end
$scope module Accumulator_First3 $end
$var wire   32  aaabq  shift_regs(2)(0) [31:0]  $end
$var wire   32  aaabr  shift_regs(2)(1) [31:0]  $end
$var wire   32  aaabs  shift_regs(2)(2) [31:0]  $end
$var wire   32  aaabt  shift_regs(2)(3) [31:0]  $end
$var wire   32  aaabu  shift_regs(0)(0) [31:0]  $end
$upscope $end
$scope module Accumulator_First4 $end
$var wire   32  aaabv  shift_regs(2)(0) [31:0]  $end
$var wire   32  aaabw  shift_regs(2)(1) [31:0]  $end
$var wire   32  aaabx  shift_regs(2)(2) [31:0]  $end
$var wire   32  aaaby  shift_regs(2)(3) [31:0]  $end
$var wire   32  aaabz  shift_regs(0)(0) [31:0]  $end
$upscope $end
$scope module Accumulator_First5 $end
$var wire   32  aaaca  shift_regs(2)(0) [31:0]  $end
$var wire   32  aaacb  shift_regs(2)(1) [31:0]  $end
$var wire   32  aaacc  shift_regs(2)(2) [31:0]  $end
$var wire   32  aaacd  shift_regs(2)(3) [31:0]  $end
$var wire   32  aaace  shift_regs(0)(0) [31:0]  $end
$upscope $end
$scope module Accumulator_First6 $end
$var wire   32  aaacf  shift_regs(2)(0) [31:0]  $end
$var wire   32  aaacg  shift_regs(2)(1) [31:0]  $end
$var wire   32  aaach  shift_regs(2)(2) [31:0]  $end
$var wire   32  aaaci  shift_regs(2)(3) [31:0]  $end
$var wire   32  aaacj  shift_regs(0)(0) [31:0]  $end
$upscope $end
$scope module Accumulator_First7 $end
$var wire   32  aaack  shift_regs(2)(0) [31:0]  $end
$var wire   32  aaacl  shift_regs(2)(1) [31:0]  $end
$var wire   32  aaacm  shift_regs(2)(2) [31:0]  $end
$var wire   32  aaacn  shift_regs(2)(3) [31:0]  $end
$var wire   32  aaaco  shift_regs(0)(0) [31:0]  $end
$upscope $end
$scope module Accumulator_First8 $end
$var wire   32  aaacp  shift_regs(2)(0) [31:0]  $end
$var wire   32  aaacq  shift_regs(2)(1) [31:0]  $end
$var wire   32  aaacr  shift_regs(2)(2) [31:0]  $end
$var wire   32  aaacs  shift_regs(2)(3) [31:0]  $end
$var wire   32  aaact  shift_regs(0)(0) [31:0]  $end
$upscope $end
$scope module Accumulator_Third $end
$var wire   32  aaacu  shift_regs(0)(0) [31:0]  $end
$var wire   32  aaacv  shift_regs(0)(1) [31:0]  $end
$var wire   32  aaacw  shift_regs(0)(2) [31:0]  $end
$var wire   32  aaacx  shift_regs(0)(3) [31:0]  $end
$var wire   32  aaacy  shift_regs(0)(4) [31:0]  $end
$var wire   32  aaacz  shift_regs(1)(0) [31:0]  $end
$var wire   32  aaada  shift_regs(1)(1) [31:0]  $end
$var wire   32  aaadb  shift_regs(1)(2) [31:0]  $end
$var wire   32  aaadc  shift_regs(1)(3) [31:0]  $end
$var wire   32  aaadd  shift_regs(1)(4) [31:0]  $end
$var wire   32  aaade  shift_regs(2)(0) [31:0]  $end
$var wire   32  aaadf  shift_regs(2)(1) [31:0]  $end
$var wire   32  aaadg  shift_regs(2)(2) [31:0]  $end
$var wire   32  aaadh  shift_regs(2)(3) [31:0]  $end
$var wire   32  aaadi  shift_regs(2)(4) [31:0]  $end
$var wire   32  aaadj  shift_regs(3)(0) [31:0]  $end
$var wire   32  aaadk  shift_regs(3)(1) [31:0]  $end
$var wire   32  aaadl  shift_regs(3)(2) [31:0]  $end
$var wire   32  aaadm  shift_regs(3)(3) [31:0]  $end
$var wire   32  aaadn  shift_regs(7)(0) [31:0]  $end
$var wire   32  aaado  shift_regs(7)(1) [31:0]  $end
$var wire   32  aaadp  shift_regs(7)(2) [31:0]  $end
$var wire   32  aaadq  shift_regs(7)(3) [31:0]  $end
$var wire   32  aaadr  shift_regs(8)(0) [31:0]  $end
$var wire   32  aaads  shift_regs(8)(1) [31:0]  $end
$var wire   32  aaadt  shift_regs(8)(2) [31:0]  $end
$var wire   32  aaadu  shift_regs(8)(3) [31:0]  $end
$var wire   32  aaadv  shift_regs(3)(4) [31:0]  $end
$var wire   32  aaadw  output_s(1) [31:0]  $end
$var wire   32  aaadx  output_s(0) [31:0]  $end
$var wire   32  aaady  output(6) [31:0]  $end
$var wire   32  aaadz  output(5) [31:0]  $end
$var wire   32  aaaea  output(4) [31:0]  $end
$var wire   32  aaaeb  output(3) [31:0]  $end
$var wire   32  aaaec  output(2) [31:0]  $end
$var wire   32  aaaed  output(1) [31:0]  $end
$var wire   32  aaaee  output(0) [31:0]  $end
$var wire   32  aaaef  input_S(1) [31:0]  $end
$var wire   32  aaaeg  input_S(0) [31:0]  $end
$var wire   32  aaaeh  input_T(2) [31:0]  $end
$var wire   32  aaaei  input_T(2) [31:0]  $end
$upscope $end
$scope module boundarysram $end
$var wire   32  aaaat  boundary(0)(0) [31:0]  $end
$var wire   32  aaaau  boundary(0)(1) [31:0]  $end
$var wire   32  aaaav  boundary(0)(2) [31:0]  $end
$var wire   32  aaaaw  boundary(0)(3) [31:0]  $end
$var wire   32  aaaax  boundary(0)(4) [31:0]  $end
$var wire   32  aaaay  boundary(0)(5) [31:0]  $end
$var wire   32  aaaaz  boundary(0)(6) [31:0]  $end
$var wire   32  aaaba  boundary(0)(7) [31:0]  $end
$var wire   32  aaait  out_data(1) [31:0]  $end
$var wire   32  aaaiu  out_data(0) [31:0]  $end
$var wire   32  aaaiv  in_data(1) [31:0]  $end
$var wire   32  aaaiw  in_data(0) [31:0]  $end
$upscope $end
$scope module dma $end
$var wire   32  aaabb  dma_source [31:0]  $end
$var wire   32  aaabc  length [31:0]  $end
$var wire    1  aaair  dma_done       $end
$var wire    1  aaais  read_in       $end
$upscope $end
$scope module inputsram $end
$var wire   32  aaaix  data(6) [31:0]  $end
$var wire   32  aaaiy  data(5) [31:0]  $end
$var wire   32  aaaiz  data(4) [31:0]  $end
$var wire   32  aaaja  data(3) [31:0]  $end
$var wire   32  aaajb  data(2) [31:0]  $end
$var wire   32  aaajc  data(1) [31:0]  $end
$var wire   32  aaajd  data(0) [31:0]  $end
$var wire    1  aaaje  dma_write       $end
$upscope $end
$upscope $end
$enddefinitions  $end

$comment
All initial values are dumped below at time 0 sec = 0 timescale units.
$end

$dumpvars
b0 aaaaa
b1 aaaab
b1 aaaac
b0 aaaad
b0 aaaae
b0 aaaaf
b0 aaaag
b0 aaaah
b0 aaaai
b0 aaaaj
b0 aaaak
b0 aaaal
b0 aaaam
b0 aaaan
b0 aaaao
b0 aaaap
b0 aaaaq
b0 aaaar
b0 aaaas
b0 aaaat
b0 aaaau
b0 aaaav
b0 aaaaw
b0 aaaax
b0 aaaay
b0 aaaaz
b0 aaaba
b0 aaabb
b0 aaabc
b0 aaabd
b0 aaabe
b0 aaabf
b0 aaabg
b0 aaabh
b0 aaabi
b0 aaabj
b0 aaabk
b0 aaabl
b0 aaabm
b0 aaabn
b0 aaabo
b0 aaabp
b0 aaabq
b0 aaabr
b0 aaabs
b0 aaabt
b0 aaabu
b0 aaabv
b0 aaabw
b0 aaabx
b0 aaaby
b0 aaabz
b0 aaaca
b0 aaacb
b0 aaacc
b0 aaacd
b0 aaace
b0 aaacf
b0 aaacg
b0 aaach
b0 aaaci
b0 aaacj
b0 aaack
b0 aaacl
b0 aaacm
b0 aaacn
b0 aaaco
b0 aaacp
b0 aaacq
b0 aaacr
b0 aaacs
b0 aaact
b0 aaacu
b0 aaacv
b0 aaacw
b0 aaacx
b0 aaacy
b0 aaacz
b0 aaada
b0 aaadb
b0 aaadc
b0 aaadd
b0 aaade
b0 aaadf
b0 aaadg
b0 aaadh
b0 aaadi
b0 aaadj
b0 aaadk
b0 aaadl
b0 aaadm
b0 aaadn
b0 aaado
b0 aaadp
b0 aaadq
b0 aaadr
b0 aaads
b0 aaadt
b0 aaadu
b0 aaadv
b0 aaadw
b0 aaadx
b0 aaady
b0 aaadz
b0 aaaea
b0 aaaeb
b0 aaaec
b0 aaaed
b0 aaaee
b0 aaaef
b0 aaaeg
b0 aaaeh
b0 aaaei
b0 aaaej
b0 aaaek
b0 aaael
b0 aaaem
b0 aaaen
b0 aaaeo
b0 aaaep
b0 aaaeq
b0 aaaer
b0 aaaes
b0 aaaet
b0 aaaeu
b0 aaaev
b0 aaaew
b0 aaaex
b0 aaaey
b0 aaaez
b0 aaafa
b0 aaafb
b0 aaafc
b0 aaafd
b0 aaafe
b0 aaaff
b0 aaafg
b0 aaafh
b0 aaafi
b0 aaafj
b0 aaafk
b0 aaafl
b0 aaafm
b0 aaafn
b0 aaafo
b0 aaafp
b0 aaafq
b0 aaafr
b0 aaafs
b0 aaaft
b0 aaafu
b0 aaafv
b0 aaafw
b0 aaafx
b0 aaafy
b0 aaafz
b0 aaaga
b0 aaagb
b0 aaagc
b0 aaagd
b0 aaage
b0 aaagf
b0 aaagg
b0 aaagh
b0 aaagi
b0 aaagj
b0 aaagk
b0 aaagl
b0 aaagm
b0 aaagn
b0 aaago
b0 aaagp
b0 aaagq
b0 aaagr
b0 aaags
b0 aaagt
b0 aaagu
b0 aaagv
b0 aaagw
b0 aaagx
b0 aaagy
b0 aaagz
b0 aaaha
b0 aaahb
b0 aaahc
b0 aaahd
b0 aaahe
b0 aaahf
b0 aaahg
b0 aaahh
b0 aaahi
b0 aaahj
b0 aaahk
b0 aaahl
b0 aaahm
b0 aaahn
b0 aaaho
b0 aaahp
b0 aaahq
b0 aaahr
b0 aaahs
b0 aaaht
b0 aaahu
b0 aaahv
b0 aaahw
b0 aaahx
b0 aaahy
b0 aaahz
b0 aaaia
b0 aaaib
b0 aaaic
b0 aaaid
b0 aaaie
b0 aaaif
b0 aaaig
b0 aaaih
b0 aaaii
b0 aaaij
b0 aaaik
b0 aaail
b0 aaaim
b0 aaain
b0 aaaio
b0 aaaip
b0 aaaiq
0aaair
0aaais
b0 aaait
b0 aaaiu
b0 aaaiv
b0 aaaiw
b0 aaaix
b0 aaaiy
b0 aaaiz
b0 aaaja
b0 aaajb
b0 aaajc
b0 aaajd
0aaaje
0aaajf
0aaajg
b100 aaajh
b0 aaaji
0aaajj
0aaajk
0aaajl
0aaajm
0aaajn
0aaajo
0aaajp
0aaajq
b0 aaajr
b0 aaajs
0aaajt
0aaaju
0aaajv
b10000 aaajw
0aaajx
0aaajy
1aaajz
$end

#5000
0aaajz

#10000
1aaais
1aaajf
1aaajg
1aaajx
1aaajy
1aaajz

#15000
0aaajz

#20000
0aaais
1aaajz

#25000
0aaajz

#30000
b1001000 aaabb
b1010000100 aaabc
1aaajz

#35000
0aaajz

#40000
1aaajz

#45000
0aaajz

#50000
1aaajz

#55000
0aaajz

#60000
1aaajz

#65000
0aaajz

#70000
1aaajz

#75000
0aaajz

#80000
1aaajz

#85000
0aaajz

#90000
1aaajz

#95000
0aaajz

#100000
b110 aaaix
b101 aaaiy
b100 aaaiz
b11 aaaja
b10 aaajb
b1 aaajc
1aaaje
1aaajz

#105000
0aaajz

#110000
b10010000 aaabb
b1001101000 aaabc
0aaaje
1aaajz

#115000
0aaajz

#120000
1aaajz

#125000
0aaajz

#130000
1aaajz

#135000
0aaajz

#140000
b11000 aaaix
b10111 aaaiy
b10110 aaaiz
b10101 aaaja
b10100 aaajb
b10011 aaajc
b10010 aaajd
1aaaje
1aaajz

#145000
0aaajz

#150000
b11011000 aaabb
b1001001100 aaabc
0aaaje
1aaajz

#155000
0aaajz

#160000
1aaajz

#165000
0aaajz

#170000
1aaajz

#175000
0aaajz

#180000
b101010 aaaix
b101001 aaaiy
b101000 aaaiz
b100111 aaaja
b100110 aaajb
b100101 aaajc
b100100 aaajd
1aaaje
1aaajz

#185000
0aaajz

#190000
b100100000 aaabb
b1000110000 aaabc
0aaaje
1aaajz

#195000
0aaajz

#200000
1aaajz

#205000
0aaajz

#210000
1aaajz

#215000
0aaajz

#220000
b111100 aaaix
b111011 aaaiy
b111010 aaaiz
b111001 aaaja
b111000 aaajb
b110111 aaajc
b110110 aaajd
1aaaje
1aaajz

#225000
0aaajz

#230000
b101101000 aaabb
b1000010100 aaabc
0aaaje
1aaajz

#235000
0aaajz

#240000
1aaajz

#245000
0aaajz

#250000
1aaajz

#255000
0aaajz

#260000
b1001110 aaaix
b1001101 aaaiy
b1001100 aaaiz
b1001011 aaaja
b1001010 aaajb
b1001001 aaajc
b1001000 aaajd
1aaaje
1aaajz

#265000
0aaajz

#270000
b10100010000 aaabb
b111111000 aaabc
0aaaje
1aaajz

#275000
0aaajz

#280000
1aaajz

#285000
0aaajz

#290000
1aaajz

#295000
0aaajz

#300000
b1100000 aaaix
b1011111 aaaiy
b1011110 aaaiz
b1011101 aaaja
b1011100 aaajb
b1011011 aaajc
b1011010 aaajd
1aaaje
1aaajz

#305000
0aaajz

#310000
b10101011000 aaabb
b111011100 aaabc
0aaaje
1aaajz

#315000
0aaajz

#320000
1aaajz

#325000
0aaajz

#330000
1aaajz

#335000
0aaajz

#340000
b101001010 aaaix
b101001001 aaaiy
b101001000 aaaiz
b101000111 aaaja
b101000110 aaajb
b101000101 aaajc
b101000100 aaajd
1aaaje
1aaajz

#345000
0aaajz

#350000
b10110100000 aaabb
b111000000 aaabc
0aaaje
1aaajz

#355000
0aaajz

#360000
1aaajz

#365000
0aaajz

#370000
1aaajz

#375000
0aaajz

#380000
b101011100 aaaix
b101011011 aaaiy
b101011010 aaaiz
b101011001 aaaja
b101011000 aaajb
b101010111 aaajc
b101010110 aaajd
1aaaje
1aaajz

#385000
0aaajz

#390000
b10111101000 aaabb
b110100100 aaabc
0aaaje
1aaajz

#395000
0aaajz

#400000
1aaajz

#405000
0aaajz

#410000
1aaajz

#415000
0aaajz

#420000
b101101110 aaaix
b101101101 aaaiy
b101101100 aaaiz
b101101011 aaaja
b101101010 aaajb
b101101001 aaajc
b101101000 aaajd
1aaaje
1aaajz

#425000
0aaajz

#430000
b11000110000 aaabb
b110001000 aaabc
0aaaje
1aaajz

#435000
0aaajz

#440000
1aaajz

#445000
0aaajz

#450000
1aaajz

#455000
0aaajz

#460000
b110000000 aaaix
b101111111 aaaiy
b101111110 aaaiz
b101111101 aaaja
b101111100 aaajb
b101111011 aaajc
b101111010 aaajd
1aaaje
1aaajz

#465000
0aaajz

#470000
b11001111000 aaabb
b101101100 aaabc
0aaaje
1aaajz

#475000
0aaajz

#480000
1aaajz

#485000
0aaajz

#490000
1aaajz

#495000
0aaajz

#500000
b110010010 aaaix
b110010001 aaaiy
b110010000 aaaiz
b110001111 aaaja
b110001110 aaajb
b110001101 aaajc
b110001100 aaajd
1aaaje
1aaajz

#505000
0aaajz

#510000
b101000100000 aaabb
b101010000 aaabc
0aaaje
1aaajz

#515000
0aaajz

#520000
1aaajz

#525000
0aaajz

#530000
1aaajz

#535000
0aaajz

#540000
b110100100 aaaix
b110100011 aaaiy
b110100010 aaaiz
b110100001 aaaja
b110100000 aaajb
b110011111 aaajc
b110011110 aaajd
1aaaje
1aaajz

#545000
0aaajz

#550000
b101001101000 aaabb
b100110100 aaabc
0aaaje
1aaajz

#555000
0aaajz

#560000
1aaajz

#565000
0aaajz

#570000
1aaajz

#575000
0aaajz

#580000
b1010001110 aaaix
b1010001101 aaaiy
b1010001100 aaaiz
b1010001011 aaaja
b1010001010 aaajb
b1010001001 aaajc
b1010001000 aaajd
1aaaje
1aaajz

#585000
0aaajz

#590000
b101010110000 aaabb
b100011000 aaabc
0aaaje
1aaajz

#595000
0aaajz

#600000
1aaajz

#605000
0aaajz

#610000
1aaajz

#615000
0aaajz

#620000
b1010100000 aaaix
b1010011111 aaaiy
b1010011110 aaaiz
b1010011101 aaaja
b1010011100 aaajb
b1010011011 aaajc
b1010011010 aaajd
1aaaje
1aaajz

#625000
0aaajz

#630000
b101011111000 aaabb
b11111100 aaabc
0aaaje
1aaajz

#635000
0aaajz

#640000
1aaajz

#645000
0aaajz

#650000
1aaajz

#655000
0aaajz

#660000
b1010110010 aaaix
b1010110001 aaaiy
b1010110000 aaaiz
b1010101111 aaaja
b1010101110 aaajb
b1010101101 aaajc
b1010101100 aaajd
1aaaje
1aaajz

#665000
0aaajz

#670000
b101101000000 aaabb
b11100000 aaabc
0aaaje
1aaajz

#675000
0aaajz

#680000
1aaajz

#685000
0aaajz

#690000
1aaajz

#695000
0aaajz

#700000
b1011000100 aaaix
b1011000011 aaaiy
b1011000010 aaaiz
b1011000001 aaaja
b1011000000 aaajb
b1010111111 aaajc
b1010111110 aaajd
1aaaje
1aaajz

#705000
0aaajz

#710000
b101110001000 aaabb
b11000100 aaabc
0aaaje
1aaajz

#715000
0aaajz

#720000
1aaajz

#725000
0aaajz

#730000
1aaajz

#735000
0aaajz

#740000
b1011010110 aaaix
b1011010101 aaaiy
b1011010100 aaaiz
b1011010011 aaaja
b1011010010 aaajb
b1011010001 aaajc
b1011010000 aaajd
1aaaje
1aaajz

#745000
0aaajz

#750000
b111100110000 aaabb
b10101000 aaabc
0aaaje
1aaajz

#755000
0aaajz

#760000
1aaajz

#765000
0aaajz

#770000
1aaajz

#775000
0aaajz

#780000
b1011101000 aaaix
b1011100111 aaaiy
b1011100110 aaaiz
b1011100101 aaaja
b1011100100 aaajb
b1011100011 aaajc
b1011100010 aaajd
1aaaje
1aaajz

#785000
0aaajz

#790000
b111101111000 aaabb
b10001100 aaabc
0aaaje
1aaajz

#795000
0aaajz

#800000
1aaajz

#805000
0aaajz

#810000
1aaajz

#815000
0aaajz

#820000
b1111010010 aaaix
b1111010001 aaaiy
b1111010000 aaaiz
b1111001111 aaaja
b1111001110 aaajb
b1111001101 aaajc
b1111001100 aaajd
1aaaje
1aaajz

#825000
0aaajz

#830000
b111111000000 aaabb
b1110000 aaabc
0aaaje
1aaajz

#835000
0aaajz

#840000
1aaajz

#845000
0aaajz

#850000
1aaajz

#855000
0aaajz

#860000
b1111100100 aaaix
b1111100011 aaaiy
b1111100010 aaaiz
b1111100001 aaaja
b1111100000 aaajb
b1111011111 aaajc
b1111011110 aaajd
1aaaje
1aaajz

#865000
0aaajz

#870000
b1000000001000 aaabb
b1010100 aaabc
0aaaje
1aaajz

#875000
0aaajz

#880000
1aaajz

#885000
0aaajz

#890000
1aaajz

#895000
0aaajz

#900000
b1111110110 aaaix
b1111110101 aaaiy
b1111110100 aaaiz
b1111110011 aaaja
b1111110010 aaajb
b1111110001 aaajc
b1111110000 aaajd
1aaaje
1aaajz

#905000
0aaajz

#910000
b1000001010000 aaabb
b111000 aaabc
0aaaje
1aaajz

#915000
0aaajz

#920000
1aaajz

#925000
0aaajz

#930000
1aaajz

#935000
0aaajz

#940000
b10000001000 aaaix
b10000000111 aaaiy
b10000000110 aaaiz
b10000000101 aaaja
b10000000100 aaajb
b10000000011 aaajc
b10000000010 aaajd
1aaaje
1aaajz

#945000
0aaajz

#950000
b1000010011000 aaabb
b11100 aaabc
0aaaje
1aaajz

#955000
0aaajz

#960000
1aaajz

#965000
0aaajz

#970000
1aaajz

#975000
0aaajz

#980000
b10000011010 aaaix
b10000011001 aaaiy
b10000011000 aaaiz
b10000010111 aaaja
b10000010110 aaajb
b10000010101 aaajc
b10000010100 aaajd
1aaaje
1aaajz

#985000
0aaajz

#990000
b1010001000000 aaabb
b0 aaabc
0aaaje
1aaajz

#995000
0aaajz

#1000000
1aaajz

#1005000
0aaajz

#1010000
1aaajz

#1015000
0aaajz

#1020000
1aaair
b10000101100 aaaix
b10000101011 aaaiy
b10000101010 aaaiz
b10000101001 aaaja
b10000101000 aaajb
b10000100111 aaajc
b10000100110 aaajd
1aaaje
1aaajz

#1025000
0aaajz

#1030000
0aaair
0aaaje
1aaajz

#1035000
0aaajz

#1040000
1aaais
1aaajz

#1045000
0aaajz

#1050000
0aaais
1aaajz

#1055000
0aaajz

#1060000
b101101000 aaabb
b1010000100 aaabc
1aaajz

#1065000
0aaajz

#1070000
1aaajz

#1075000
0aaajz

#1080000
1aaajz

#1085000
0aaajz

#1090000
b1001110 aaaix
b1001101 aaaiy
b1001100 aaaiz
b1001011 aaaja
b1001010 aaajb
b1001001 aaajc
b1001000 aaajd
1aaaje
1aaajz

#1095000
0aaajz

#1100000
b110110000 aaabb
b1001101000 aaabc
0aaaje
1aaajz

