Test1/RESULT.vcd
$date
     Jun 11, 2020       17:51:56
$end

$version
 SystemC 2.3.3-Accellera --- Jun  8 2020 15:53:52
$end

$timescale
     1 ps
$end

$scope module SystemC $end
$var wire   32  aaaaa  output_regs(0) [31:0]  $end
$var wire   32  aaaab  output_regs(1) [31:0]  $end
$var wire   32  aaaac  output_regs(2) [31:0]  $end
$var wire   32  aaaad  output_regs(3) [31:0]  $end
$var wire   32  aaaae  output_regs(4) [31:0]  $end
$var wire   32  aaaaf  output_regs(5) [31:0]  $end
$var wire   32  aaaag  output_regs(6) [31:0]  $end
$var wire   32  aaaah  output_regs(7) [31:0]  $end
$var wire   32  aaaai  output_regs(8) [31:0]  $end
$var wire   32  aaaaj  shift_regs(0)(0) [31:0]  $end
$var wire   32  aaaak  shift_regs(1)(0) [31:0]  $end
$var wire   32  aaaal  shift_regs(2)(0) [31:0]  $end
$var wire   32  aaaam  shift_regs(3)(0) [31:0]  $end
$var wire   32  aaaan  shift_regs(4)(0) [31:0]  $end
$var wire   32  aaaao  shift_regs(5)(0) [31:0]  $end
$var wire   32  aaaap  shift_regs(6)(0) [31:0]  $end
$var wire   32  aaaaq  shift_regs(7)(0) [31:0]  $end
$var wire   32  aaaar  shift_regs(8)(0) [31:0]  $end
$var wire   32  aaaas  shift_regs(0)(1) [31:0]  $end
$var wire   32  aaaat  shift_regs(1)(1) [31:0]  $end
$var wire   32  aaaau  shift_regs(2)(1) [31:0]  $end
$var wire   32  aaaav  shift_regs(3)(1) [31:0]  $end
$var wire   32  aaaaw  shift_regs(4)(1) [31:0]  $end
$var wire   32  aaaax  shift_regs(5)(1) [31:0]  $end
$var wire   32  aaaay  shift_regs(6)(1) [31:0]  $end
$var wire   32  aaaaz  shift_regs(7)(1) [31:0]  $end
$var wire   32  aaaba  shift_regs(8)(1) [31:0]  $end
$var wire   32  aaabb  shift_regs(0)(2) [31:0]  $end
$var wire   32  aaabc  shift_regs(1)(2) [31:0]  $end
$var wire   32  aaabd  shift_regs(2)(2) [31:0]  $end
$var wire   32  aaabe  shift_regs(3)(2) [31:0]  $end
$var wire   32  aaabf  shift_regs(4)(2) [31:0]  $end
$var wire   32  aaabg  shift_regs(5)(2) [31:0]  $end
$var wire   32  aaabh  shift_regs(6)(2) [31:0]  $end
$var wire   32  aaabi  shift_regs(7)(2) [31:0]  $end
$var wire   32  aaabj  shift_regs(8)(2) [31:0]  $end
$var wire   32  aaabk  sr_index_reg [31:0]  $end
$var wire   32  aaabl  signal_stage1 [31:0]  $end
$var wire   32  aaabm  output(8) [31:0]  $end
$var wire   32  aaabn  output(7) [31:0]  $end
$var wire   32  aaabo  output(6) [31:0]  $end
$var wire   32  aaabp  output(5) [31:0]  $end
$var wire   32  aaabq  output(4) [31:0]  $end
$var wire   32  aaabr  output(3) [31:0]  $end
$var wire   32  aaabs  output(2) [31:0]  $end
$var wire   32  aaabt  output(1) [31:0]  $end
$var wire   32  aaabu  output(0) [31:0]  $end
$var wire    1  aaabv  rst       $end
$var wire   32  aaabw  sr_index [31:0]  $end
$var wire   32  aaabx  ctrl_stage1 [31:0]  $end
$var wire   32  aaaby  A_input(8) [31:0]  $end
$var wire   32  aaabz  A_input(7) [31:0]  $end
$var wire   32  aaaca  A_input(6) [31:0]  $end
$var wire   32  aaacb  A_input(5) [31:0]  $end
$var wire   32  aaacc  A_input(4) [31:0]  $end
$var wire   32  aaacd  A_input(3) [31:0]  $end
$var wire   32  aaace  A_input(2) [31:0]  $end
$var wire   32  aaacf  A_input(1) [31:0]  $end
$var wire   32  aaacg  A_input(0) [31:0]  $end
$var wire   32  aaach  buffer(8) [31:0]  $end
$var wire   32  aaaci  buffer(7) [31:0]  $end
$var wire   32  aaacj  buffer(6) [31:0]  $end
$var wire   32  aaack  buffer(5) [31:0]  $end
$var wire   32  aaacl  buffer(4) [31:0]  $end
$var wire   32  aaacm  buffer(3) [31:0]  $end
$var wire   32  aaacn  buffer(2) [31:0]  $end
$var wire   32  aaaco  buffer(1) [31:0]  $end
$var wire   32  aaacp  buffer(0) [31:0]  $end
$var wire   32  aaacq  weight(2) [31:0]  $end
$var wire   32  aaacr  weight(1) [31:0]  $end
$var wire   32  aaacs  weight(0) [31:0]  $end
$var wire   32  aaact  input(6) [31:0]  $end
$var wire   32  aaacu  input(5) [31:0]  $end
$var wire   32  aaacv  input(4) [31:0]  $end
$var wire   32  aaacw  input(3) [31:0]  $end
$var wire   32  aaacx  input(2) [31:0]  $end
$var wire   32  aaacy  input(1) [31:0]  $end
$var wire   32  aaacz  input(0) [31:0]  $end
$upscope $end
$enddefinitions  $end

$comment
All initial values are dumped below at time 0 sec = 0 timescale units.
$end

$dumpvars
b0 aaaaa
b0 aaaab
b0 aaaac
b0 aaaad
b0 aaaae
b0 aaaaf
b0 aaaag
b0 aaaah
b0 aaaai
b0 aaaaj
b0 aaaak
b0 aaaal
b0 aaaam
b0 aaaan
b0 aaaao
b0 aaaap
b0 aaaaq
b0 aaaar
b0 aaaas
b0 aaaat
b0 aaaau
b0 aaaav
b0 aaaaw
b0 aaaax
b0 aaaay
b0 aaaaz
b0 aaaba
b0 aaabb
b0 aaabc
b0 aaabd
b0 aaabe
b0 aaabf
b0 aaabg
b0 aaabh
b0 aaabi
b0 aaabj
b0 aaabk
b0 aaabl
b0 aaabm
b0 aaabn
b0 aaabo
b0 aaabp
b0 aaabq
b0 aaabr
b0 aaabs
b0 aaabt
b0 aaabu
0aaabv
b0 aaabw
b0 aaabx
b0 aaaby
b0 aaabz
b0 aaaca
b0 aaacb
b0 aaacc
b0 aaacd
b0 aaace
b0 aaacf
b0 aaacg
b0 aaach
b0 aaaci
b0 aaacj
b0 aaack
b0 aaacl
b0 aaacm
b0 aaacn
b0 aaaco
b0 aaacp
b0 aaacq
b0 aaacr
b0 aaacs
b0 aaact
b0 aaacu
b0 aaacv
b0 aaacw
b0 aaacx
b0 aaacy
b0 aaacz
$end

#10000
1aaabv
b100101 aaaby
b10110011 aaabz
b110011000 aaaca
b101010000 aaacb
b100001000 aaacc
b11000000 aaacd
b1111000 aaace
b110101 aaacf
b111 aaacg
b100101 aaach
b10110011 aaaci
b110011000 aaacj
b101010000 aaack
b100001000 aaacl
b11000000 aaacm
b1111000 aaacn
b110101 aaaco
b111 aaacp
b111 aaacq
b100 aaacr
b1 aaacs
b100101 aaact
b11111 aaacu
b11001 aaacv
b10011 aaacw
b1101 aaacx
b111 aaacy
b1 aaacz

#20000
b111 aaaaa
b110101 aaaab
b1111000 aaaac
b11000000 aaaad
b100001000 aaaae
b101010000 aaaaf
b110011000 aaaag
b10110011 aaaah
b100101 aaaai
b111 aaaaj
b110101 aaaak
b1111000 aaaal
b11000000 aaaam
b100001000 aaaan
b101010000 aaaao
b110011000 aaaap
b10110011 aaaaq
b100101 aaaar
b1 aaabk
b1 aaabl
b1 aaabw
b1 aaabx
b100110 aaaby
b10111000 aaabz
b110100100 aaaca
b101011100 aaacb
b100010100 aaacc
b11001100 aaacd
b10000100 aaace
b1000000 aaacf
b1110 aaacg
b100110 aaach
b10111000 aaaci
b110100100 aaacj
b101011100 aaack
b100010100 aaacl
b11001100 aaacm
b10000100 aaacn
b1000000 aaaco
b1110 aaacp
b100110 aaact
b100000 aaacu
b11010 aaacv
b10100 aaacw
b1110 aaacx
b1000 aaacy
b10 aaacz

#30000
b1110 aaaaa
b1000000 aaaab
b10000100 aaaac
b11001100 aaaad
b100010100 aaaae
b101011100 aaaaf
b110100100 aaaag
b10111000 aaaah
b100110 aaaai
b1110 aaaas
b1000000 aaaat
b10000100 aaaau
b11001100 aaaav
b100010100 aaaaw
b101011100 aaaax
b110100100 aaaay
b10111000 aaaaz
b100110 aaaba
b0 aaabk
b0 aaabl
b100101 aaabm
b10110011 aaabn
b110011000 aaabo
b101010000 aaabp
b100001000 aaabq
b11000000 aaabr
b1111000 aaabs
b110101 aaabt
b111 aaabu
b0 aaabw
b0 aaabx
b1001100 aaaby
b11111110 aaabz
b1000000100 aaaca
b110101010 aaacb
b101010000 aaacc
b11110110 aaacd
b10011100 aaace
b1001010 aaacf
b10000 aaacg
b1001100 aaach
b11111110 aaaci
b1000000100 aaacj
b110101010 aaack
b101010000 aaacl
b11110110 aaacm
b10011100 aaacn
b1001010 aaaco
b10000 aaacp
b1000 aaacq
b101 aaacr
b10 aaacs

#40000
b10111 aaaaa
b1111111 aaaab
b100010100 aaaac
b110110110 aaaad
b1001011000 aaaae
b1011111010 aaaaf
b1110011100 aaaag
b110110001 aaaah
b1110001 aaaai
b10111 aaaaj
b1111111 aaaak
b100010100 aaaal
b110110110 aaaam
b1001011000 aaaan
b1011111010 aaaao
b1110011100 aaaap
b110110001 aaaaq
b1110001 aaaar
b10 aaabk
b10 aaabl
b100110 aaabm
b10111000 aaabn
b110100100 aaabo
b101011100 aaabp
b100010100 aaabq
b11001100 aaabr
b10000100 aaabs
b1000000 aaabt
b1110 aaabu
b10 aaabw
b10 aaabx
b100111 aaaby
b10111101 aaabz
b110110000 aaaca
b101101000 aaacb
b100100000 aaacc
b11011000 aaacd
b10010000 aaace
b1001011 aaacf
b10101 aaacg
b100111 aaach
b10111101 aaaci
b110110000 aaacj
b101101000 aaack
b100100000 aaacl
b11011000 aaacm
b10010000 aaacn
b1001011 aaaco
b10101 aaacp
b111 aaacq
b100 aaacr
b1 aaacs
b100111 aaact
b100001 aaacu
b11011 aaacv
b10101 aaacw
b1111 aaacx
b1001 aaacy
b11 aaacz

#50000
b10101 aaaaa
b1001011 aaaab
b10010000 aaaac
b11011000 aaaad
b100100000 aaaae
b101101000 aaaaf
b110110000 aaaag
b10111101 aaaah
b100111 aaaai
b10101 aaabb
b1001011 aaabc
b10010000 aaabd
b11011000 aaabe
b100100000 aaabf
b101101000 aaabg
b110110000 aaabh
b10111101 aaabi
b100111 aaabj
b1 aaabk
b1 aaabl
b1110001 aaabm
b110110001 aaabn
b1110011100 aaabo
b1011111010 aaabp
b1001011000 aaabq
b110110110 aaabr
b100010100 aaabs
b1111111 aaabt
b10111 aaabu
b1 aaabw
b1 aaabx
b1001110 aaaby
b100000101 aaabz
b1000010011 aaaca
b110111001 aaacb
b101011111 aaacc
b100000101 aaacd
b10101011 aaace
b1010111 aaacf
b11000 aaacg
b1001110 aaach
b100000101 aaaci
b1000010011 aaacj
b110111001 aaack
b101011111 aaacl
b100000101 aaacm
b10101011 aaacn
b1010111 aaaco
b11000 aaacp
b1000 aaacq
b101 aaacr
b10 aaacs

#60000
b100110 aaaaa
b10010111 aaaab
b100101111 aaaac
b111010001 aaaad
b1001110011 aaaae
b1100010101 aaaaf
b1110110111 aaaag
b110111101 aaaah
b1110100 aaaai
b100110 aaaas
b10010111 aaaat
b100101111 aaaau
b111010001 aaaav
b1001110011 aaaaw
b1100010101 aaaax
b1110110111 aaaay
b110111101 aaaaz
b1110100 aaaba
b0 aaabk
b0 aaabl
b100111 aaabm
b10111101 aaabn
b110110000 aaabo
b101101000 aaabp
b100100000 aaabq
b11011000 aaabr
b10010000 aaabs
b1001011 aaabt
b10101 aaabu
b0 aaabw
b0 aaabx
b1110101 aaaby
b101001101 aaabz
b1001110110 aaaca
b1000001010 aaacb
b110011110 aaacc
b100110010 aaacd
b11000110 aaace
b1100011 aaacf
b11011 aaacg
b1110101 aaach
b101001101 aaaci
b1001110110 aaacj
b1000001010 aaack
b110011110 aaacl
b100110010 aaacm
b11000110 aaacn
b1100011 aaaco
b11011 aaacp
b1001 aaacq
b110 aaacr
b11 aaacs

#70000
b110010 aaaaa
b11100010 aaaab
b111011010 aaaac
b1011101000 aaaad
b1111110110 aaaae
b10100000100 aaaaf
b11000010010 aaaag
b1011111110 aaaah
b11100110 aaaai
b110010 aaaaj
b11100010 aaaak
b111011010 aaaal
b1011101000 aaaam
b1111110110 aaaan
b10100000100 aaaao
b11000010010 aaaap
b1011111110 aaaaq
b11100110 aaaar
b11 aaabk
b11 aaabl
b1110100 aaabm
b110111101 aaabn
b1110110111 aaabo
b1100010101 aaabp
b1001110011 aaabq
b111010001 aaabr
b100101111 aaabs
b10010111 aaabt
b100110 aaabu
b11 aaabw
b11 aaabx
b101000 aaaby
b11000010 aaabz
b110111100 aaaca
b101110100 aaacb
b100101100 aaacc
b11100100 aaacd
b10011100 aaace
b1010110 aaacf
b11100 aaacg
b101000 aaach
b11000010 aaaci
b110111100 aaacj
b101110100 aaack
b100101100 aaacl
b11100100 aaacm
b10011100 aaacn
b1010110 aaaco
b11100 aaacp
b111 aaacq
b100 aaacr
b1 aaacs
b101000 aaact
b100010 aaacu
b11100 aaacv
b10110 aaacw
b10000 aaacx
b1010 aaacy
b100 aaacz

#80000
b11100 aaaaa
b1010110 aaaab
b10011100 aaaac
b11100100 aaaad
b100101100 aaaae
b101110100 aaaaf
b110111100 aaaag
b11000010 aaaah
b101000 aaaai
b10 aaabk
b10 aaabl
b11100110 aaabm
b1011111110 aaabn
b11000010010 aaabo
b10100000100 aaabp
b1111110110 aaabq
b1011101000 aaabr
b111011010 aaabs
b11100010 aaabt
b110010 aaabu
b10 aaabw
b10 aaabx
b1010000 aaaby
b100001100 aaabz
b1000100010 aaaca
b111001000 aaacb
b101101110 aaacc
b100010100 aaacd
b10111010 aaace
b1100100 aaacf
b100000 aaacg
b1010000 aaach
b100001100 aaaci
b1000100010 aaacj
b111001000 aaack
b101101110 aaacl
b100010100 aaacm
b10111010 aaacn
b1100100 aaaco
b100000 aaacp
b1000 aaacq
b101 aaacr
b10 aaacs

#90000
b110101 aaaaa
b10101111 aaaab
b101001010 aaaac
b111101100 aaaad
b1010001110 aaaae
b1100110000 aaaaf
b1111010010 aaaag
b111001001 aaaah
b1110111 aaaai
b110101 aaabb
b10101111 aaabc
b101001010 aaabd
b111101100 aaabe
b1010001110 aaabf
b1100110000 aaabg
b1111010010 aaabh
b111001001 aaabi
b1110111 aaabj
b1 aaabk
b1 aaabl
b101000 aaabm
b11000010 aaabn
b110111100 aaabo
b101110100 aaabp
b100101100 aaabq
b11100100 aaabr
b10011100 aaabs
b1010110 aaabt
b11100 aaabu
b1 aaabw
b1 aaabx
b1111000 aaaby
b101010110 aaabz
b1010001000 aaaca
b1000011100 aaacb
b110110000 aaacc
b101000100 aaacd
b11011000 aaace
b1110010 aaacf
b100100 aaacg
b1111000 aaach
b101010110 aaaci
b1010001000 aaacj
b1000011100 aaack
b110110000 aaacl
b101000100 aaacm
b11011000 aaacn
b1110010 aaaco
b100100 aaacp
b1001 aaacq
b110 aaacr
b11 aaacs

#100000
b1001010 aaaaa
b100001001 aaaab
b1000000111 aaaac
b1100010101 aaaad
b10000100011 aaaae
b10100110001 aaaaf
b11000111111 aaaag
b1100010011 aaaah
b11101100 aaaai
b1001010 aaaas
b100001001 aaaat
b1000000111 aaaau
b1100010101 aaaav
b10000100011 aaaaw
b10100110001 aaaax
b11000111111 aaaay
b1100010011 aaaaz
b11101100 aaaba
b11 aaabk
b11 aaabl
b1110111 aaabm
b111001001 aaabn
b1111010010 aaabo
b1100110000 aaabp
b1010001110 aaabq
b111101100 aaabr
b101001010 aaabs
b10101111 aaabt
b110101 aaabu
b11 aaabw
b11 aaabx
b1010010 aaaby
b100010011 aaabz
b1000110001 aaaca
b111010111 aaacb
b101111101 aaacc
b100100011 aaacd
b11001001 aaace
b1110001 aaacf
b101000 aaacg
b1010010 aaach
b100010011 aaaci
b1000110001 aaacj
b111010111 aaack
b101111101 aaacl
b100100011 aaacm
b11001001 aaacn
b1110001 aaaco
b101000 aaacp
b1000 aaacq
b101 aaacr
b10 aaacs
b101001 aaact
b100011 aaacu
b11101 aaacv
b10111 aaacw
b10001 aaacx
b1011 aaacy
b101 aaacz

#110000
b1000100 aaaaa
b11000111 aaaab
b101100101 aaaac
b1000000111 aaaad
b1010101001 aaaae
b1101001011 aaaaf
b1111101101 aaaag
b111010101 aaaah
b1111010 aaaai
b10 aaabk
b10 aaabl
b11101100 aaabm
b1100010011 aaabn
b11000111111 aaabo
b10100110001 aaabp
b10000100011 aaabq
b1100010101 aaabr
b1000000111 aaabs
b100001001 aaabt
b1001010 aaabu
b10 aaabw
b10 aaabx
b1111011 aaaby
b101011111 aaabz
b1010011010 aaaca
b1000101110 aaacb
b111000010 aaacc
b101010110 aaacd
b11101010 aaace
b10000001 aaacf
b101101 aaacg
b1111011 aaach
b101011111 aaaci
b1010011010 aaacj
b1000101110 aaack
b111000010 aaacl
b101010110 aaacm
b11101010 aaacn
b10000001 aaaco
b101101 aaacp
b1001 aaacq
b110 aaacr
b11 aaacs

#120000
b1100010 aaaaa
b100110000 aaaab
b1000110100 aaaac
b1101000010 aaaad
b10001010000 aaaae
b10101011110 aaaaf
b11001101100 aaaag
b1100101000 aaaah
b11110010 aaaai
b1100010 aaabb
b100110000 aaabc
b1000110100 aaabd
b1101000010 aaabe
b10001010000 aaabf
b10101011110 aaabg
b11001101100 aaabh
b1100101000 aaabi
b11110010 aaabj
b11 aaabk
b11 aaabl
b1111010 aaabm
b111010101 aaabn
b1111101101 aaabo
b1101001011 aaabp
b1010101001 aaabq
b1000000111 aaabr
b101100101 aaabs
b11000111 aaabt
b1000100 aaabu
b11 aaabw
b11 aaabx
b1111110 aaaby
b101101000 aaabz
b1010101100 aaaca
b1001000000 aaacb
b111010100 aaacc
b101101000 aaacd
b11111100 aaace
b10010000 aaacf
b110110 aaacg
b1111110 aaach
b101101000 aaaci
b1010101100 aaacj
b1001000000 aaack
b111010100 aaacl
b101101000 aaacm
b11111100 aaacn
b10010000 aaaco
b110110 aaacp
b101010 aaact
b100100 aaacu
b11110 aaacv
b11000 aaacw
b10010 aaacx
b1100 aaacy
b110 aaacz

#130000
b1111010 aaaaa
b101010111 aaaab
b1001100001 aaaac
b1101101111 aaaad
b10001111101 aaaae
b10110001011 aaaaf
b11010011001 aaaag
b1100111101 aaaah
b11111000 aaaai
b11110010 aaabm
b1100101000 aaabn
b11001101100 aaabo
b10101011110 aaabp
b10001010000 aaabq
b1101000010 aaabr
b1000110100 aaabs
b100110000 aaabt
b1100010 aaabu

#140000
b10110000 aaaaa
b111100111 aaaab
b1101011101 aaaac
b10011010111 aaaad
b11001010001 aaaae
b11111001011 aaaaf
b100101000101 aaaag
b10010100101 aaaah
b101110110 aaaai
b11111000 aaabm
b1100111101 aaabn
b11010011001 aaabo
b10110001011 aaabp
b10001111101 aaabq
b1101101111 aaabr
b1001100001 aaabs
b101010111 aaabt
b1111010 aaabu

#150000
b11100110 aaaaa
b1001110111 aaaab
b10001011001 aaaac
b11000111111 aaaad
b100000100101 aaaae
b101000001011 aaaaf
b101111110001 aaaag
b11000001101 aaaah
b111110100 aaaai
b101110110 aaabm
b10010100101 aaabn
b100101000101 aaabo
b11111001011 aaabp
b11001010001 aaabq
b10011010111 aaabr
b1101011101 aaabs
b111100111 aaabt
b10110000 aaabu

#160000
b100011100 aaaaa
b1100000111 aaaab
b10101010101 aaaac
b11110100111 aaaad
b100111111001 aaaae
b110001001011 aaaaf
b111010011101 aaaag
b11101110101 aaaah
b1001110010 aaaai
b111110100 aaabm
b11000001101 aaabn
b101111110001 aaabo
b101000001011 aaabp
b100000100101 aaabq
b11000111111 aaabr
b10001011001 aaabs
b1001110111 aaabt
b11100110 aaabu

#170000
b101010010 aaaaa
b1110010111 aaaab
b11001010001 aaaac
b100100001111 aaaad
b101111001101 aaaae
b111010001011 aaaaf
b1000101001001 aaaag
b100011011101 aaaah
b1011110000 aaaai
b1001110010 aaabm
b11101110101 aaabn
b111010011101 aaabo
b110001001011 aaabp
b100111111001 aaabq
b11110100111 aaabr
b10101010101 aaabs
b1100000111 aaabt
b100011100 aaabu

#180000
b110001000 aaaaa
b10000100111 aaaab
b11101001101 aaaac
b101001110111 aaaad
b110110100001 aaaae
b1000011001011 aaaaf
b1001111110101 aaaag
b101001000101 aaaah
b1101101110 aaaai
b1011110000 aaabm
b100011011101 aaabn
b1000101001001 aaabo
b111010001011 aaabp
b101111001101 aaabq
b100100001111 aaabr
b11001010001 aaabs
b1110010111 aaabt
b101010010 aaabu

#190000
b110111110 aaaaa
b10010110111 aaaab
b100001001001 aaaac
b101111011111 aaaad
b111101110101 aaaae
b1001100001011 aaaaf
b1011010100001 aaaag
b101110101101 aaaah
b1111101100 aaaai
b1101101110 aaabm
b101001000101 aaabn
b1001111110101 aaabo
b1000011001011 aaabp
b110110100001 aaabq
b101001110111 aaabr
b11101001101 aaabs
b10000100111 aaabt
b110001000 aaabu

#200000
b111110100 aaaaa
b10101000111 aaaab
b100101000101 aaaac
b110101000111 aaaad
b1000101001001 aaaae
b1010101001011 aaaaf
b1100101001101 aaaag
b110100010101 aaaah
b10001101010 aaaai
b1111101100 aaabm
b101110101101 aaabn
b1011010100001 aaabo
b1001100001011 aaabp
b111101110101 aaabq
b101111011111 aaabr
b100001001001 aaabs
b10010110111 aaabt
b110111110 aaabu

#210000
b1000101010 aaaaa
b10111010111 aaaab
b101001000001 aaaac
b111010101111 aaaad
b1001100011101 aaaae
b1011110001011 aaaaf
b1101111111001 aaaag
b111001111101 aaaah
b10011101000 aaaai
b10001101010 aaabm
b110100010101 aaabn
b1100101001101 aaabo
b1010101001011 aaabp
b1000101001001 aaabq
b110101000111 aaabr
b100101000101 aaabs
b10101000111 aaabt
b111110100 aaabu

#220000
b1001100000 aaaaa
b11001100111 aaaab
b101100111101 aaaac
b1000000010111 aaaad
b1010011110001 aaaae
b1100111001011 aaaaf
b1111010100101 aaaag
b111111100101 aaaah
b10101100110 aaaai
b10011101000 aaabm
b111001111101 aaabn
b1101111111001 aaabo
b1011110001011 aaabp
b1001100011101 aaabq
b111010101111 aaabr
b101001000001 aaabs
b10111010111 aaabt
b1000101010 aaabu

#230000
b1010010110 aaaaa
b11011110111 aaaab
b110000111001 aaaac
b1000101111111 aaaad
b1011011000101 aaaae
b1110000001011 aaaaf
b10000101010001 aaaag
b1000101001101 aaaah
b10111100100 aaaai
b10101100110 aaabm
b111111100101 aaabn
b1111010100101 aaabo
b1100111001011 aaabp
b1010011110001 aaabq
b1000000010111 aaabr
b101100111101 aaabs
b11001100111 aaabt
b1001100000 aaabu

#240000
b1011001100 aaaaa
b11110000111 aaaab
b110100110101 aaaac
b1001011100111 aaaad
b1100010011001 aaaae
b1111001001011 aaaaf
b10001111111101 aaaag
b1001010110101 aaaah
b11001100010 aaaai
b10111100100 aaabm
b1000101001101 aaabn
b10000101010001 aaabo
b1110000001011 aaabp
b1011011000101 aaabq
b1000101111111 aaabr
b110000111001 aaabs
b11011110111 aaabt
b1010010110 aaabu

#250000
b1100000010 aaaaa
b100000010111 aaaab
b111000110001 aaaac
b1010001001111 aaaad
b1101001101101 aaaae
b10000010001011 aaaaf
b10011010101001 aaaag
b1010000011101 aaaah
b11011100000 aaaai
b11001100010 aaabm
b1001010110101 aaabn
b10001111111101 aaabo
b1111001001011 aaabp
b1100010011001 aaabq
b1001011100111 aaabr
b110100110101 aaabs
b11110000111 aaabt
b1011001100 aaabu

#260000
b1100111000 aaaaa
b100010100111 aaaab
b111100101101 aaaac
b1010110110111 aaaad
b1110001000001 aaaae
b10001011001011 aaaaf
b10100101010101 aaaag
b1010110000101 aaaah
b11101011110 aaaai
b11011100000 aaabm
b1010000011101 aaabn
b10011010101001 aaabo
b10000010001011 aaabp
b1101001101101 aaabq
b1010001001111 aaabr
b111000110001 aaabs
b100000010111 aaabt
b1100000010 aaabu

#270000
b1101101110 aaaaa
b100100110111 aaaab
b1000000101001 aaaac
b1011100011111 aaaad
b1111000010101 aaaae
b10010100001011 aaaaf
b10110000000001 aaaag
b1011011101101 aaaah
b11111011100 aaaai
b11101011110 aaabm
b1010110000101 aaabn
b10100101010101 aaabo
b10001011001011 aaabp
b1110001000001 aaabq
b1010110110111 aaabr
b111100101101 aaabs
b100010100111 aaabt
b1100111000 aaabu

#280000
b1110100100 aaaaa
b100111000111 aaaab
b1000100100101 aaaac
b1100010000111 aaaad
b1111111101001 aaaae
b10011101001011 aaaaf
b10111010101101 aaaag
b1100001010101 aaaah
b100001011010 aaaai
b11111011100 aaabm
b1011011101101 aaabn
b10110000000001 aaabo
b10010100001011 aaabp
b1111000010101 aaabq
b1011100011111 aaabr
b1000000101001 aaabs
b100100110111 aaabt
b1101101110 aaabu

#290000
b1111011010 aaaaa
b101001010111 aaaab
b1001000100001 aaaac
b1100111101111 aaaad
b10000110111101 aaaae
b10100110001011 aaaaf
b11000101011001 aaaag
b1100110111101 aaaah
b100011011000 aaaai
b100001011010 aaabm
b1100001010101 aaabn
b10111010101101 aaabo
b10011101001011 aaabp
b1111111101001 aaabq
b1100010000111 aaabr
b1000100100101 aaabs
b100111000111 aaabt
b1110100100 aaabu

#300000
b10000010000 aaaaa
b101011100111 aaaab
b1001100011101 aaaac
b1101101010111 aaaad
b10001110010001 aaaae
b10101111001011 aaaaf
b11010000000101 aaaag
b1101100100101 aaaah
b100101010110 aaaai
b100011011000 aaabm
b1100110111101 aaabn
b11000101011001 aaabo
b10100110001011 aaabp
b10000110111101 aaabq
b1100111101111 aaabr
b1001000100001 aaabs
b101001010111 aaabt
b1111011010 aaabu

#310000
b10001000110 aaaaa
b101101110111 aaaab
b1010000011001 aaaac
b1110010111111 aaaad
b10010101100101 aaaae
b10111000001011 aaaaf
b11011010110001 aaaag
b1110010001101 aaaah
b100111010100 aaaai
b100101010110 aaabm
b1101100100101 aaabn
b11010000000101 aaabo
b10101111001011 aaabp
b10001110010001 aaabq
b1101101010111 aaabr
b1001100011101 aaabs
b101011100111 aaabt
b10000010000 aaabu

#320000
b10001111100 aaaaa
b110000000111 aaaab
b1010100010101 aaaac
b1111000100111 aaaad
b10011100111001 aaaae
b11000001001011 aaaaf
b11100101011101 aaaag
b1110111110101 aaaah
b101001010010 aaaai
b100111010100 aaabm
b1110010001101 aaabn
b11011010110001 aaabo
b10111000001011 aaabp
b10010101100101 aaabq
b1110010111111 aaabr
b1010000011001 aaabs
b101101110111 aaabt
b10001000110 aaabu

