Test1/RESULT.vcd
$date
     Jun 11, 2020       22:04:48
$end

$version
 SystemC 2.3.3-Accellera --- May 21 2020 16:59:07
$end

$timescale
     1 ps
$end

$scope module SystemC $end
$var wire   32  aaaaa  output_regs(0) [31:0]  $end
$var wire   32  aaaab  output_regs(1) [31:0]  $end
$var wire   32  aaaac  output_regs(2) [31:0]  $end
$var wire   32  aaaad  output_regs(3) [31:0]  $end
$var wire   32  aaaae  output_regs(4) [31:0]  $end
$var wire   32  aaaaf  output_regs(5) [31:0]  $end
$var wire   32  aaaag  output_regs(6) [31:0]  $end
$var wire   32  aaaah  output_regs(7) [31:0]  $end
$var wire   32  aaaai  output_regs(8) [31:0]  $end
$var wire   32  aaaaj  shift_regs(0)(0) [31:0]  $end
$var wire   32  aaaak  shift_regs(1)(0) [31:0]  $end
$var wire   32  aaaal  shift_regs(2)(0) [31:0]  $end
$var wire   32  aaaam  shift_regs(3)(0) [31:0]  $end
$var wire   32  aaaan  shift_regs(4)(0) [31:0]  $end
$var wire   32  aaaao  shift_regs(5)(0) [31:0]  $end
$var wire   32  aaaap  shift_regs(6)(0) [31:0]  $end
$var wire   32  aaaaq  shift_regs(7)(0) [31:0]  $end
$var wire   32  aaaar  shift_regs(8)(0) [31:0]  $end
$var wire   32  aaaas  shift_regs(0)(1) [31:0]  $end
$var wire   32  aaaat  shift_regs(1)(1) [31:0]  $end
$var wire   32  aaaau  shift_regs(2)(1) [31:0]  $end
$var wire   32  aaaav  shift_regs(3)(1) [31:0]  $end
$var wire   32  aaaaw  shift_regs(4)(1) [31:0]  $end
$var wire   32  aaaax  shift_regs(5)(1) [31:0]  $end
$var wire   32  aaaay  shift_regs(6)(1) [31:0]  $end
$var wire   32  aaaaz  shift_regs(7)(1) [31:0]  $end
$var wire   32  aaaba  shift_regs(8)(1) [31:0]  $end
$var wire   32  aaabb  shift_regs(0)(2) [31:0]  $end
$var wire   32  aaabc  shift_regs(1)(2) [31:0]  $end
$var wire   32  aaabd  shift_regs(2)(2) [31:0]  $end
$var wire   32  aaabe  shift_regs(3)(2) [31:0]  $end
$var wire   32  aaabf  shift_regs(4)(2) [31:0]  $end
$var wire   32  aaabg  shift_regs(5)(2) [31:0]  $end
$var wire   32  aaabh  shift_regs(6)(2) [31:0]  $end
$var wire   32  aaabi  shift_regs(7)(2) [31:0]  $end
$var wire   32  aaabj  shift_regs(8)(2) [31:0]  $end
$var wire   32  aaabk  tree_adder(8) [31:0]  $end
$var wire   32  aaabl  tree_adder(7) [31:0]  $end
$var wire   32  aaabm  tree_adder(6) [31:0]  $end
$var wire   32  aaabn  tree_adder(5) [31:0]  $end
$var wire   32  aaabo  tree_adder(4) [31:0]  $end
$var wire   32  aaabp  tree_adder(3) [31:0]  $end
$var wire   32  aaabq  tree_adder(2) [31:0]  $end
$var wire   32  aaabr  tree_adder(1) [31:0]  $end
$var wire   32  aaabs  tree_adder(0) [31:0]  $end
$var wire   32  aaabt  output8(8) [31:0]  $end
$var wire   32  aaabu  output8(7) [31:0]  $end
$var wire   32  aaabv  output8(6) [31:0]  $end
$var wire   32  aaabw  output8(5) [31:0]  $end
$var wire   32  aaabx  output8(4) [31:0]  $end
$var wire   32  aaaby  output8(3) [31:0]  $end
$var wire   32  aaabz  output8(2) [31:0]  $end
$var wire   32  aaaca  output8(1) [31:0]  $end
$var wire   32  aaacb  output8(0) [31:0]  $end
$var wire   32  aaacc  output7(8) [31:0]  $end
$var wire   32  aaacd  output7(7) [31:0]  $end
$var wire   32  aaace  output7(6) [31:0]  $end
$var wire   32  aaacf  output7(5) [31:0]  $end
$var wire   32  aaacg  output7(4) [31:0]  $end
$var wire   32  aaach  output7(3) [31:0]  $end
$var wire   32  aaaci  output7(2) [31:0]  $end
$var wire   32  aaacj  output7(1) [31:0]  $end
$var wire   32  aaack  output7(0) [31:0]  $end
$var wire   32  aaacl  output6(8) [31:0]  $end
$var wire   32  aaacm  output6(7) [31:0]  $end
$var wire   32  aaacn  output6(6) [31:0]  $end
$var wire   32  aaaco  output6(5) [31:0]  $end
$var wire   32  aaacp  output6(4) [31:0]  $end
$var wire   32  aaacq  output6(3) [31:0]  $end
$var wire   32  aaacr  output6(2) [31:0]  $end
$var wire   32  aaacs  output6(1) [31:0]  $end
$var wire   32  aaact  output6(0) [31:0]  $end
$var wire   32  aaacu  output5(8) [31:0]  $end
$var wire   32  aaacv  output5(7) [31:0]  $end
$var wire   32  aaacw  output5(6) [31:0]  $end
$var wire   32  aaacx  output5(5) [31:0]  $end
$var wire   32  aaacy  output5(4) [31:0]  $end
$var wire   32  aaacz  output5(3) [31:0]  $end
$var wire   32  aaada  output5(2) [31:0]  $end
$var wire   32  aaadb  output5(1) [31:0]  $end
$var wire   32  aaadc  output5(0) [31:0]  $end
$var wire   32  aaadd  output4(8) [31:0]  $end
$var wire   32  aaade  output4(7) [31:0]  $end
$var wire   32  aaadf  output4(6) [31:0]  $end
$var wire   32  aaadg  output4(5) [31:0]  $end
$var wire   32  aaadh  output4(4) [31:0]  $end
$var wire   32  aaadi  output4(3) [31:0]  $end
$var wire   32  aaadj  output4(2) [31:0]  $end
$var wire   32  aaadk  output4(1) [31:0]  $end
$var wire   32  aaadl  output4(0) [31:0]  $end
$var wire   32  aaadm  output3(8) [31:0]  $end
$var wire   32  aaadn  output3(7) [31:0]  $end
$var wire   32  aaado  output3(6) [31:0]  $end
$var wire   32  aaadp  output3(5) [31:0]  $end
$var wire   32  aaadq  output3(4) [31:0]  $end
$var wire   32  aaadr  output3(3) [31:0]  $end
$var wire   32  aaads  output3(2) [31:0]  $end
$var wire   32  aaadt  output3(1) [31:0]  $end
$var wire   32  aaadu  output3(0) [31:0]  $end
$var wire   32  aaadv  output2(8) [31:0]  $end
$var wire   32  aaadw  output2(7) [31:0]  $end
$var wire   32  aaadx  output2(6) [31:0]  $end
$var wire   32  aaady  output2(5) [31:0]  $end
$var wire   32  aaadz  output2(4) [31:0]  $end
$var wire   32  aaaea  output2(3) [31:0]  $end
$var wire   32  aaaeb  output2(2) [31:0]  $end
$var wire   32  aaaec  output2(1) [31:0]  $end
$var wire   32  aaaed  output2(0) [31:0]  $end
$var wire   32  aaaee  output1(8) [31:0]  $end
$var wire   32  aaaef  output1(7) [31:0]  $end
$var wire   32  aaaeg  output1(6) [31:0]  $end
$var wire   32  aaaeh  output1(5) [31:0]  $end
$var wire   32  aaaei  output1(4) [31:0]  $end
$var wire   32  aaaej  output1(3) [31:0]  $end
$var wire   32  aaaek  output1(2) [31:0]  $end
$var wire   32  aaael  output1(1) [31:0]  $end
$var wire   32  aaaem  output1(0) [31:0]  $end
$var wire    1  aaaen  rst       $end
$var wire   32  aaaeo  ctrl [31:0]  $end
$var wire   32  aaaep  A_input(8) [31:0]  $end
$var wire   32  aaaeq  A_input(7) [31:0]  $end
$var wire   32  aaaer  A_input(6) [31:0]  $end
$var wire   32  aaaes  A_input(5) [31:0]  $end
$var wire   32  aaaet  A_input(4) [31:0]  $end
$var wire   32  aaaeu  A_input(3) [31:0]  $end
$var wire   32  aaaev  A_input(2) [31:0]  $end
$var wire   32  aaaew  A_input(1) [31:0]  $end
$var wire   32  aaaex  A_input(0) [31:0]  $end
$var wire   32  aaaey  buffer(8) [31:0]  $end
$var wire   32  aaaez  buffer(7) [31:0]  $end
$var wire   32  aaafa  buffer(6) [31:0]  $end
$var wire   32  aaafb  buffer(5) [31:0]  $end
$var wire   32  aaafc  buffer(4) [31:0]  $end
$var wire   32  aaafd  buffer(3) [31:0]  $end
$var wire   32  aaafe  buffer(2) [31:0]  $end
$var wire   32  aaaff  buffer(1) [31:0]  $end
$var wire   32  aaafg  buffer(0) [31:0]  $end
$var wire   32  aaafh  weight(2) [31:0]  $end
$var wire   32  aaafi  weight(1) [31:0]  $end
$var wire   32  aaafj  weight(0) [31:0]  $end
$var wire   32  aaafk  input(6) [31:0]  $end
$var wire   32  aaafl  input(5) [31:0]  $end
$var wire   32  aaafm  input(4) [31:0]  $end
$var wire   32  aaafn  input(3) [31:0]  $end
$var wire   32  aaafo  input(2) [31:0]  $end
$var wire   32  aaafp  input(1) [31:0]  $end
$var wire   32  aaafq  input(0) [31:0]  $end
$upscope $end
$enddefinitions  $end

$comment
All initial values are dumped below at time 0 sec = 0 timescale units.
$end

$dumpvars
b0 aaaaa
b0 aaaab
b0 aaaac
b0 aaaad
b0 aaaae
b0 aaaaf
b0 aaaag
b0 aaaah
b0 aaaai
b0 aaaaj
b0 aaaak
b0 aaaal
b0 aaaam
b0 aaaan
b0 aaaao
b0 aaaap
b0 aaaaq
b0 aaaar
b0 aaaas
b0 aaaat
b0 aaaau
b0 aaaav
b0 aaaaw
b0 aaaax
b0 aaaay
b0 aaaaz
b0 aaaba
b0 aaabb
b0 aaabc
b0 aaabd
b0 aaabe
b0 aaabf
b0 aaabg
b0 aaabh
b0 aaabi
b0 aaabj
b0 aaabk
b0 aaabl
b0 aaabm
b0 aaabn
b0 aaabo
b0 aaabp
b0 aaabq
b0 aaabr
b0 aaabs
b0 aaabt
b0 aaabu
b0 aaabv
b0 aaabw
b0 aaabx
b0 aaaby
b0 aaabz
b0 aaaca
b0 aaacb
b0 aaacc
b0 aaacd
b0 aaace
b0 aaacf
b0 aaacg
b0 aaach
b0 aaaci
b0 aaacj
b0 aaack
b0 aaacl
b0 aaacm
b0 aaacn
b0 aaaco
b0 aaacp
b0 aaacq
b0 aaacr
b0 aaacs
b0 aaact
b0 aaacu
b0 aaacv
b0 aaacw
b0 aaacx
b0 aaacy
b0 aaacz
b0 aaada
b0 aaadb
b0 aaadc
b0 aaadd
b0 aaade
b0 aaadf
b0 aaadg
b0 aaadh
b0 aaadi
b0 aaadj
b0 aaadk
b0 aaadl
b0 aaadm
b0 aaadn
b0 aaado
b0 aaadp
b0 aaadq
b0 aaadr
b0 aaads
b0 aaadt
b0 aaadu
b0 aaadv
b0 aaadw
b0 aaadx
b0 aaady
b0 aaadz
b0 aaaea
b0 aaaeb
b0 aaaec
b0 aaaed
b0 aaaee
b0 aaaef
b0 aaaeg
b0 aaaeh
b0 aaaei
b0 aaaej
b0 aaaek
b0 aaael
b0 aaaem
0aaaen
b0 aaaeo
b0 aaaep
b0 aaaeq
b0 aaaer
b0 aaaes
b0 aaaet
b0 aaaeu
b0 aaaev
b0 aaaew
b0 aaaex
b0 aaaey
b0 aaaez
b0 aaafa
b0 aaafb
b0 aaafc
b0 aaafd
b0 aaafe
b0 aaaff
b0 aaafg
b0 aaafh
b0 aaafi
b0 aaafj
b0 aaafk
b0 aaafl
b0 aaafm
b0 aaafn
b0 aaafo
b0 aaafp
b0 aaafq
$end

#10000
1aaaen
b100101 aaaep
b10110011 aaaeq
b110011000 aaaer
b101010000 aaaes
b100001000 aaaet
b11000000 aaaeu
b1111000 aaaev
b110101 aaaew
b111 aaaex
b100101 aaaey
b10110011 aaaez
b110011000 aaafa
b101010000 aaafb
b100001000 aaafc
b11000000 aaafd
b1111000 aaafe
b110101 aaaff
b111 aaafg
b111 aaafh
b100 aaafi
b1 aaafj
b100101 aaafk
b11111 aaafl
b11001 aaafm
b10011 aaafn
b1101 aaafo
b111 aaafp
b1 aaafq

#20000
b111 aaaaa
b110101 aaaab
b1111000 aaaac
b11000000 aaaad
b100001000 aaaae
b101010000 aaaaf
b110011000 aaaag
b10110011 aaaah
b100101 aaaai
b111 aaaaj
b110101 aaaak
b1111000 aaaal
b11000000 aaaam
b100001000 aaaan
b101010000 aaaao
b110011000 aaaap
b10110011 aaaaq
b100101 aaaar
b1 aaaeo
b100110 aaaep
b10111000 aaaeq
b110100100 aaaer
b101011100 aaaes
b100010100 aaaet
b11001100 aaaeu
b10000100 aaaev
b1000000 aaaew
b1110 aaaex
b100110 aaaey
b10111000 aaaez
b110100100 aaafa
b101011100 aaafb
b100010100 aaafc
b11001100 aaafd
b10000100 aaafe
b1000000 aaaff
b1110 aaafg
b100110 aaafk
b100000 aaafl
b11010 aaafm
b10100 aaafn
b1110 aaafo
b1000 aaafp
b10 aaafq

#30000
b1110 aaaaa
b1000000 aaaab
b10000100 aaaac
b11001100 aaaad
b100010100 aaaae
b101011100 aaaaf
b110100100 aaaag
b10111000 aaaah
b100110 aaaai
b1110 aaaas
b1000000 aaaat
b10000100 aaaau
b11001100 aaaav
b100010100 aaaaw
b101011100 aaaax
b110100100 aaaay
b10111000 aaaaz
b100110 aaaba
b10111011100 aaabk
b111010101100 aaabl
b1100111100000 aaabm
b1010110101000 aaabn
b1000101110000 aaabo
b110100111000 aaabp
b100100000000 aaabq
b10011010100 aaabr
b110100100 aaabs
b101100000 aaabt
b1100010100 aaabu
b10100001010 aaabv
b10001000100 aaabw
b1101111110 aaabx
b1010111000 aaaby
b111110010 aaabz
b100011100 aaaca
b1110000 aaacb
b100101101 aaacc
b1010110001 aaacd
b10001111010 aaace
b1111000110 aaacf
b1100010010 aaacg
b1001011110 aaach
b110101010 aaaci
b11101111 aaacj
b1011011 aaack
b11111100 aaacl
b1001010010 aaacm
b1111110000 aaacn
b1101001110 aaaco
b1010101100 aaacp
b1000001010 aaacq
b101101000 aaacr
b11000110 aaacs
b1001000 aaact
b11001101 aaacu
b111110111 aaacv
b1101101100 aaacw
b1011011100 aaacx
b1001001100 aaacy
b110111100 aaacz
b100101100 aaada
b10100001 aaadb
b110111 aaadc
b10100000 aaadd
b110100000 aaade
b1011101110 aaadf
b1001110000 aaadg
b111110010 aaadh
b101110100 aaadi
b11110110 aaadj
b10000000 aaadk
b101000 aaadl
b1110101 aaadm
b101001101 aaadn
b1001110110 aaado
b1000001010 aaadp
b110011110 aaadq
b100110010 aaadr
b11000110 aaads
b1100011 aaadt
b11011 aaadu
b1001100 aaadv
b11111110 aaadw
b1000000100 aaadx
b110101010 aaady
b101010000 aaadz
b11110110 aaaea
b10011100 aaaeb
b1001010 aaaec
b10000 aaaed
b100101 aaaee
b10110011 aaaef
b110011000 aaaeg
b101010000 aaaeh
b100001000 aaaei
b11000000 aaaej
b1111000 aaaek
b110101 aaael
b111 aaaem
b0 aaaeo
b1001100 aaaep
b11111110 aaaeq
b1000000100 aaaer
b110101010 aaaes
b101010000 aaaet
b11110110 aaaeu
b10011100 aaaev
b1001010 aaaew
b10000 aaaex
b1001100 aaaey
b11111110 aaaez
b1000000100 aaafa
b110101010 aaafb
b101010000 aaafc
b11110110 aaafd
b10011100 aaafe
b1001010 aaaff
b10000 aaafg
b1000 aaafh
b101 aaafi
b10 aaafj

#40000
b10111 aaaaa
b1111111 aaaab
b100010100 aaaac
b110110110 aaaad
b1001011000 aaaae
b1011111010 aaaaf
b1110011100 aaaag
b110110001 aaaah
b1110001 aaaai
b10111 aaaaj
b1111111 aaaak
b100010100 aaaal
b110110110 aaaam
b1001011000 aaaan
b1011111010 aaaao
b1110011100 aaaap
b110110001 aaaaq
b1110001 aaaar
b11000000000 aaabk
b111100001100 aaabl
b1101010010100 aaabm
b1011001011100 aaabn
b1001000100100 aaabo
b110111101100 aaabp
b100110110100 aaabq
b10101100100 aaabr
b111111000 aaabs
b101101000 aaabt
b1100100111 aaabu
b10100101011 aaabv
b10001100101 aaabw
b1110011111 aaabx
b1011011001 aaaby
b1000010011 aaabz
b100110101 aaaca
b1111110 aaacb
b100110100 aaacc
b1011000010 aaacd
b10010011000 aaace
b1111100100 aaacf
b1100110000 aaacg
b1001111100 aaach
b111001000 aaaci
b100000110 aaacj
b1101000 aaack
b100000010 aaacl
b1001100001 aaacm
b10000001011 aaacn
b1101101001 aaaco
b1011000111 aaacp
b1000100101 aaacq
b110000011 aaacr
b11011011 aaacs
b1010100 aaact
b11010010 aaacu
b1000000100 aaacv
b1110000100 aaacw
b1011110100 aaacx
b1001100100 aaacy
b111010100 aaacz
b101000100 aaada
b10110100 aaadb
b1000010 aaadc
b10100100 aaadd
b110101011 aaade
b1100000011 aaadf
b1010000101 aaadg
b1000000111 aaadh
b110001001 aaadi
b100001011 aaadj
b10010001 aaadk
b110010 aaadl
b1111000 aaadm
b101010110 aaadn
b1010001000 aaado
b1000011100 aaadp
b110110000 aaadq
b101000100 aaadr
b11011000 aaads
b1110010 aaadt
b100100 aaadu
b1001110 aaadv
b100000101 aaadw
b1000010011 aaadx
b110111001 aaady
b101011111 aaadz
b100000101 aaaea
b10101011 aaaeb
b1010111 aaaec
b11000 aaaed
b100110 aaaee
b10111000 aaaef
b110100100 aaaeg
b101011100 aaaeh
b100010100 aaaei
b11001100 aaaej
b10000100 aaaek
b1000000 aaael
b1110 aaaem
b10 aaaeo
b100111 aaaep
b10111101 aaaeq
b110110000 aaaer
b101101000 aaaes
b100100000 aaaet
b11011000 aaaeu
b10010000 aaaev
b1001011 aaaew
b10101 aaaex
b100111 aaaey
b10111101 aaaez
b110110000 aaafa
b101101000 aaafb
b100100000 aaafc
b11011000 aaafd
b10010000 aaafe
b1001011 aaaff
b10101 aaafg
b111 aaafh
b100 aaafi
b1 aaafj
b100111 aaafk
b100001 aaafl
b11011 aaafm
b10101 aaafn
b1111 aaafo
b1001 aaafp
b11 aaafq

#50000
b10101 aaaaa
b1001011 aaaab
b10010000 aaaac
b11011000 aaaad
b100100000 aaaae
b101101000 aaaaf
b110110000 aaaag
b10111101 aaaah
b100111 aaaai
b10101 aaabb
b1001011 aaabc
b10010000 aaabd
b11011000 aaabe
b100100000 aaabf
b101101000 aaabg
b110110000 aaabh
b10111101 aaabi
b100111 aaabj
b110100101000 aaabk
b10000000100000 aaabl
b11011111001000 aaabm
b10111011001000 aaabn
b10010111001000 aaabo
b1110011001000 aaabp
b1001111001000 aaabq
b101011000000 aaabr
b1111001000 aaabs
b1011110101 aaabt
b11010001111 aaabu
b101010101010 aaabv
b100100001100 aaabw
b11101101110 aaabx
b10111010000 aaaby
b10000110010 aaabz
b1001101001 aaaca
b11110111 aaacb
b1010001101 aaacc
b10111000101 aaacd
b100110000100 aaace
b100000001010 aaacf
b11010010000 aaacg
b10100010110 aaach
b1110011100 aaaci
b1000001011 aaacj
b11001011 aaack
b1000101001 aaacl
b10100000011 aaacm
b100001101010 aaacn
b11100010100 aaaco
b10110111110 aaacp
b10001101000 aaacq
b1100010010 aaacr
b110110101 aaacs
b10100011 aaact
b111001001 aaacu
b10001001001 aaacv
b11101011100 aaacw
b11000101010 aaacx
b10011111000 aaacy
b1111000110 aaacz
b1010010100 aaada
b101100111 aaadb
b1111111 aaadc
b101101101 aaadd
b1110010111 aaade
b11001011010 aaadf
b10101001100 aaadg
b10000111110 aaadh
b1100110000 aaadi
b1000100010 aaadj
b100100001 aaadk
b1011111 aaadl
b100010101 aaadm
b1011101101 aaadn
b10101100100 aaado
b10001111010 aaadp
b1110010000 aaadq
b1010100110 aaadr
b110111100 aaads
b11100011 aaadt
b1000011 aaadu
b11000001 aaadv
b1001001011 aaadw
b10001111010 aaadx
b1110110100 aaady
b1011101110 aaadz
b1000101000 aaaea
b101100010 aaaeb
b10101101 aaaec
b101011 aaaed
b1110001 aaaee
b110110001 aaaef
b1110011100 aaaeg
b1011111010 aaaeh
b1001011000 aaaei
b110110110 aaaej
b100010100 aaaek
b1111111 aaael
b10111 aaaem
b1 aaaeo
b1001110 aaaep
b100000101 aaaeq
b1000010011 aaaer
b110111001 aaaes
b101011111 aaaet
b100000101 aaaeu
b10101011 aaaev
b1010111 aaaew
b11000 aaaex
b1001110 aaaey
b100000101 aaaez
b1000010011 aaafa
b110111001 aaafb
b101011111 aaafc
b100000101 aaafd
b10101011 aaafe
b1010111 aaaff
b11000 aaafg
b1000 aaafh
b101 aaafi
b10 aaafj

#60000
b100110 aaaaa
b10010111 aaaab
b100101111 aaaac
b111010001 aaaad
b1001110011 aaaae
b1100010101 aaaaf
b1110110111 aaaag
b110111101 aaaah
b1110100 aaaai
b100110 aaaas
b10010111 aaaat
b100101111 aaaau
b111010001 aaaav
b1001110011 aaaaw
b1100010101 aaaax
b1110110111 aaaay
b110111101 aaaaz
b1110100 aaaba
b11000100100 aaabk
b111101101100 aaabl
b1101101001000 aaabm
b1011100010000 aaabn
b1001011011000 aaabo
b111010100000 aaabp
b101001101000 aaabq
b10111110100 aaabr
b1001001100 aaabs
b101110000 aaabt
b1100111010 aaabu
b10101001100 aaabv
b10010000110 aaabw
b1111000000 aaabx
b1011111010 aaaby
b1000110100 aaabz
b101001110 aaaca
b10001100 aaacb
b100111011 aaacc
b1011010011 aaacd
b10010110110 aaace
b10000000010 aaacf
b1101001110 aaacg
b1010011010 aaach
b111100110 aaaci
b100011101 aaacj
b1110101 aaack
b100001000 aaacl
b1001110000 aaacm
b10000100110 aaacn
b1110000100 aaaco
b1011100010 aaacp
b1001000000 aaacq
b110011110 aaacr
b11110000 aaacs
b1100000 aaact
b11010111 aaacu
b1000010001 aaacv
b1110011100 aaacw
b1100001100 aaacx
b1001111100 aaacy
b111101100 aaacz
b101011100 aaada
b11000111 aaadb
b1001101 aaadc
b10101000 aaadd
b110110110 aaade
b1100011000 aaadf
b1010011010 aaadg
b1000011100 aaadh
b110011110 aaadi
b100100000 aaadj
b10100010 aaadk
b111100 aaadl
b1111011 aaadm
b101011111 aaadn
b1010011010 aaado
b1000101110 aaadp
b111000010 aaadq
b101010110 aaadr
b11101010 aaads
b10000001 aaadt
b101101 aaadu
b1010000 aaadv
b100001100 aaadw
b1000100010 aaadx
b111001000 aaady
b101101110 aaadz
b100010100 aaaea
b10111010 aaaeb
b1100100 aaaec
b100000 aaaed
b100111 aaaee
b10111101 aaaef
b110110000 aaaeg
b101101000 aaaeh
b100100000 aaaei
b11011000 aaaej
b10010000 aaaek
b1001011 aaael
b10101 aaaem
b0 aaaeo
b1110101 aaaep
b101001101 aaaeq
b1001110110 aaaer
b1000001010 aaaes
b110011110 aaaet
b100110010 aaaeu
b11000110 aaaev
b1100011 aaaew
b11011 aaaex
b1110101 aaaey
b101001101 aaaez
b1001110110 aaafa
b1000001010 aaafb
b110011110 aaafc
b100110010 aaafd
b11000110 aaafe
b1100011 aaaff
b11011 aaafg
b1001 aaafh
b110 aaafi
b11 aaafj

#70000
b110010 aaaaa
b11100010 aaaab
b111011010 aaaac
b1011101000 aaaad
b1111110110 aaaae
b10100000100 aaaaf
b11000010010 aaaag
b1011111110 aaaah
b11100110 aaaai
b110010 aaaaj
b11100010 aaaak
b111011010 aaaal
b1011101000 aaaam
b1111110110 aaaan
b10100000100 aaaao
b11000010010 aaaap
b1011111110 aaaaq
b11100110 aaaar
b110101111000 aaabk
b10000011110000 aaabl
b11100101001000 aaabm
b11000001001000 aaabn
b10011101001000 aaabo
b1111001001000 aaabp
b1010101001000 aaabq
b101111110000 aaabr
b10001111000 aaabs
b1100000110 aaabt
b11010110111 aaabu
b101011101111 aaabv
b100101010001 aaabw
b11110110011 aaabx
b11000010101 aaaby
b10001110111 aaabz
b1010011101 aaaca
b100010100 aaacb
b1010011100 aaacc
b10111101001 aaacd
b100111000011 aaace
b100001001001 aaacf
b11011001111 aaacg
b10101010101 aaach
b1111011011 aaaci
b1000111011 aaacj
b11100110 aaack
b1000110110 aaacl
b10100100011 aaacm
b100010100011 aaacn
b11101001101 aaaco
b10111110111 aaacp
b10010100001 aaacq
b1101001011 aaacr
b111100001 aaacs
b10111100 aaact
b111010100 aaacu
b10001100101 aaacv
b11110001111 aaacw
b11001011101 aaacx
b10100101011 aaacy
b1111111001 aaacz
b1011000111 aaada
b110001111 aaadb
b10010110 aaadc
b101110110 aaadd
b1110101111 aaade
b11010000111 aaadf
b10101111001 aaadg
b10001101011 aaadh
b1101011101 aaadi
b1001001111 aaadj
b101000101 aaadk
b1110100 aaadl
b100011100 aaadm
b1100000001 aaadn
b10110001011 aaado
b10010100001 aaadp
b1110110111 aaadq
b1011001101 aaadr
b111100011 aaads
b100000011 aaadt
b1010110 aaadu
b11000110 aaadv
b1001011011 aaadw
b10010011011 aaadx
b1111010101 aaady
b1100001111 aaadz
b1001001001 aaaea
b110000011 aaaeb
b11001001 aaaec
b111100 aaaed
b1110100 aaaee
b110111101 aaaef
b1110110111 aaaeg
b1100010101 aaaeh
b1001110011 aaaei
b111010001 aaaej
b100101111 aaaek
b10010111 aaael
b100110 aaaem
b11 aaaeo
b101000 aaaep
b11000010 aaaeq
b110111100 aaaer
b101110100 aaaes
b100101100 aaaet
b11100100 aaaeu
b10011100 aaaev
b1010110 aaaew
b11100 aaaex
b101000 aaaey
b11000010 aaaez
b110111100 aaafa
b101110100 aaafb
b100101100 aaafc
b11100100 aaafd
b10011100 aaafe
b1010110 aaaff
b11100 aaafg
b111 aaafh
b100 aaafi
b1 aaafj
b101000 aaafk
b100010 aaafl
b11100 aaafm
b10110 aaafn
b10000 aaafo
b1010 aaafp
b100 aaafq

#80000
b11100 aaaaa
b1010110 aaaab
b10011100 aaaac
b11100100 aaaad
b100101100 aaaae
b101110100 aaaaf
b110111100 aaaag
b11000010 aaaah
b101000 aaaai
b1010111110100 aaabk
b11010001111100 aaabl
b101100111101000 aaabm
b100101110010000 aaabn
b11110100111000 aaabo
b10111011100000 aaabp
b10000010001000 aaabq
b1000111100100 aaabr
b11001111100 aaabs
b10011000001 aaabt
b101001110101 aaabu
b1000011100110 aaabv
b111001011110 aaabw
b101111010110 aaabx
b100101001110 aaaby
b11011000110 aaabz
b1111101011 aaaca
b110010111 aaacb
b10000100010 aaacc
b100101000000 aaacd
b111100100100 aaace
b110011010010 aaacf
b101010000000 aaacg
b100000101110 aaach
b10111011100 aaaci
b1101011000 aaacj
b101010010 aaack
b1110001001 aaacl
b100000010111 aaacm
b110101110100 aaacn
b101101011000 aaaco
b100100111100 aaacp
b11100100000 aaacq
b10100000100 aaacr
b1011010001 aaacs
b100010011 aaact
b1011110110 aaacu
b11011111010 aaacv
b101111010110 aaacw
b100111110000 aaacx
b100000001010 aaacy
b11000100100 aaacz
b10000111110 aaada
b1001010110 aaadb
b11011010 aaadc
b1001101001 aaadd
b10111101001 aaade
b101001001010 aaadf
b100010011010 aaadg
b11011101010 aaadh
b10100111010 aaadi
b1110001010 aaadj
b111100111 aaadk
b10100111 aaadl
b111100010 aaadm
b10011100100 aaadn
b100011010000 aaado
b11101010110 aaadp
b10111011100 aaadq
b10001100010 aaadr
b1011101000 aaads
b110000100 aaadt
b1111010 aaadu
b101100001 aaadv
b1111101011 aaadw
b11101101000 aaadx
b11000100100 aaady
b10011100000 aaadz
b1110011100 aaaea
b1001011000 aaaeb
b100101101 aaaec
b1010011 aaaed
b11100110 aaaee
b1011111110 aaaef
b11000010010 aaaeg
b10100000100 aaaeh
b1111110110 aaaei
b1011101000 aaaej
b111011010 aaaek
b11100010 aaael
b110010 aaaem
b10 aaaeo
b1010000 aaaep
b100001100 aaaeq
b1000100010 aaaer
b111001000 aaaes
b101101110 aaaet
b100010100 aaaeu
b10111010 aaaev
b1100100 aaaew
b100000 aaaex
b1010000 aaaey
b100001100 aaaez
b1000100010 aaafa
b111001000 aaafb
b101101110 aaafc
b100010100 aaafd
b10111010 aaafe
b1100100 aaaff
b100000 aaafg
b1000 aaafh
b101 aaafi
b10 aaafj

#90000
b110101 aaaaa
b10101111 aaaab
b101001010 aaaac
b111101100 aaaad
b1010001110 aaaae
b1100110000 aaaaf
b1111010010 aaaag
b111001001 aaaah
b1110111 aaaai
b110101 aaabb
b10101111 aaabc
b101001010 aaabd
b111101100 aaabe
b1010001110 aaabf
b1100110000 aaabg
b1111010010 aaabh
b111001001 aaabi
b1110111 aaabj
b11001001000 aaabk
b111111001100 aaabl
b1101111111100 aaabm
b1011111000100 aaabn
b1001110001100 aaabo
b111101010100 aaabp
b101100011100 aaabq
b11010000100 aaabr
b1010100000 aaabs
b101111000 aaabt
b1101001101 aaabu
b10101101101 aaabv
b10010100111 aaabw
b1111100001 aaabx
b1100011011 aaaby
b1001010101 aaabz
b101100111 aaaca
b10011010 aaacb
b101000010 aaacc
b1011100100 aaacd
b10011010100 aaace
b10000100000 aaacf
b1101101100 aaacg
b1010111000 aaach
b1000000100 aaaci
b100110100 aaacj
b10000010 aaack
b100001110 aaacl
b1001111111 aaacm
b10001000001 aaacn
b1110011111 aaaco
b1011111101 aaacp
b1001011011 aaacq
b110111001 aaacr
b100000101 aaacs
b1101100 aaact
b11011100 aaacu
b1000011110 aaacv
b1110110100 aaacw
b1100100100 aaacx
b1010010100 aaacy
b1000000100 aaacz
b101110100 aaada
b11011010 aaadb
b1011000 aaadc
b10101100 aaadd
b111000001 aaade
b1100101101 aaadf
b1010101111 aaadg
b1000110001 aaadh
b110110011 aaadi
b100110101 aaadj
b10110011 aaadk
b1000110 aaadl
b1111110 aaadm
b101101000 aaadn
b1010101100 aaado
b1001000000 aaadp
b111010100 aaadq
b101101000 aaadr
b11111100 aaads
b10010000 aaadt
b110110 aaadu
b1010010 aaadv
b100010011 aaadw
b1000110001 aaadx
b111010111 aaady
b101111101 aaadz
b100100011 aaaea
b11001001 aaaeb
b1110001 aaaec
b101000 aaaed
b101000 aaaee
b11000010 aaaef
b110111100 aaaeg
b101110100 aaaeh
b100101100 aaaei
b11100100 aaaej
b10011100 aaaek
b1010110 aaael
b11100 aaaem
b1 aaaeo
b1111000 aaaep
b101010110 aaaeq
b1010001000 aaaer
b1000011100 aaaes
b110110000 aaaet
b101000100 aaaeu
b11011000 aaaev
b1110010 aaaew
b100100 aaaex
b1111000 aaaey
b101010110 aaaez
b1010001000 aaafa
b1000011100 aaafb
b110110000 aaafc
b101000100 aaafd
b11011000 aaafe
b1110010 aaaff
b100100 aaafg
b1001 aaafh
b110 aaafi
b11 aaafj

