Test1/RESULT.vcd
$date
     Jun 11, 2020       14:16:58
$end

$version
 SystemC 2.3.3-Accellera --- May 21 2020 16:59:07
$end

$timescale
     1 ps
$end

$scope module SystemC $end
$var wire   32  aaaaa  output_regs(0) [31:0]  $end
$var wire   32  aaaab  output_regs(1) [31:0]  $end
$var wire   32  aaaac  output_regs(2) [31:0]  $end
$var wire   32  aaaad  output_regs(3) [31:0]  $end
$var wire   32  aaaae  output_regs(4) [31:0]  $end
$var wire   32  aaaaf  output_regs(5) [31:0]  $end
$var wire   32  aaaag  output_regs(6) [31:0]  $end
$var wire   32  aaaah  output_regs(7) [31:0]  $end
$var wire   32  aaaai  output_regs(8) [31:0]  $end
$var wire   32  aaaaj  shift_regs(0)(0) [31:0]  $end
$var wire   32  aaaak  shift_regs(1)(0) [31:0]  $end
$var wire   32  aaaal  shift_regs(2)(0) [31:0]  $end
$var wire   32  aaaam  shift_regs(3)(0) [31:0]  $end
$var wire   32  aaaan  shift_regs(4)(0) [31:0]  $end
$var wire   32  aaaao  shift_regs(5)(0) [31:0]  $end
$var wire   32  aaaap  shift_regs(6)(0) [31:0]  $end
$var wire   32  aaaaq  shift_regs(7)(0) [31:0]  $end
$var wire   32  aaaar  shift_regs(8)(0) [31:0]  $end
$var wire   32  aaaas  shift_regs(0)(1) [31:0]  $end
$var wire   32  aaaat  shift_regs(1)(1) [31:0]  $end
$var wire   32  aaaau  shift_regs(2)(1) [31:0]  $end
$var wire   32  aaaav  shift_regs(3)(1) [31:0]  $end
$var wire   32  aaaaw  shift_regs(4)(1) [31:0]  $end
$var wire   32  aaaax  shift_regs(5)(1) [31:0]  $end
$var wire   32  aaaay  shift_regs(6)(1) [31:0]  $end
$var wire   32  aaaaz  shift_regs(7)(1) [31:0]  $end
$var wire   32  aaaba  shift_regs(8)(1) [31:0]  $end
$var wire   32  aaabb  shift_regs(0)(2) [31:0]  $end
$var wire   32  aaabc  shift_regs(1)(2) [31:0]  $end
$var wire   32  aaabd  shift_regs(2)(2) [31:0]  $end
$var wire   32  aaabe  shift_regs(3)(2) [31:0]  $end
$var wire   32  aaabf  shift_regs(4)(2) [31:0]  $end
$var wire   32  aaabg  shift_regs(5)(2) [31:0]  $end
$var wire   32  aaabh  shift_regs(6)(2) [31:0]  $end
$var wire   32  aaabi  shift_regs(7)(2) [31:0]  $end
$var wire   32  aaabj  shift_regs(8)(2) [31:0]  $end
$var wire   32  aaabk  sr_index_reg [31:0]  $end
$var wire   32  aaabl  output(8) [31:0]  $end
$var wire   32  aaabm  output(7) [31:0]  $end
$var wire   32  aaabn  output(6) [31:0]  $end
$var wire   32  aaabo  output(5) [31:0]  $end
$var wire   32  aaabp  output(4) [31:0]  $end
$var wire   32  aaabq  output(3) [31:0]  $end
$var wire   32  aaabr  output(2) [31:0]  $end
$var wire   32  aaabs  output(1) [31:0]  $end
$var wire   32  aaabt  output(0) [31:0]  $end
$var wire    1  aaabu  rst       $end
$var wire   32  aaabv  sr_index [31:0]  $end
$var wire   32  aaabw  ctrl [31:0]  $end
$var wire   32  aaabx  A_input(8) [31:0]  $end
$var wire   32  aaaby  A_input(7) [31:0]  $end
$var wire   32  aaabz  A_input(6) [31:0]  $end
$var wire   32  aaaca  A_input(5) [31:0]  $end
$var wire   32  aaacb  A_input(4) [31:0]  $end
$var wire   32  aaacc  A_input(3) [31:0]  $end
$var wire   32  aaacd  A_input(2) [31:0]  $end
$var wire   32  aaace  A_input(1) [31:0]  $end
$var wire   32  aaacf  A_input(0) [31:0]  $end
$var wire   32  aaacg  buffer(8) [31:0]  $end
$var wire   32  aaach  buffer(7) [31:0]  $end
$var wire   32  aaaci  buffer(6) [31:0]  $end
$var wire   32  aaacj  buffer(5) [31:0]  $end
$var wire   32  aaack  buffer(4) [31:0]  $end
$var wire   32  aaacl  buffer(3) [31:0]  $end
$var wire   32  aaacm  buffer(2) [31:0]  $end
$var wire   32  aaacn  buffer(1) [31:0]  $end
$var wire   32  aaaco  buffer(0) [31:0]  $end
$var wire   32  aaacp  weight(2) [31:0]  $end
$var wire   32  aaacq  weight(1) [31:0]  $end
$var wire   32  aaacr  weight(0) [31:0]  $end
$var wire   32  aaacs  input(6) [31:0]  $end
$var wire   32  aaact  input(5) [31:0]  $end
$var wire   32  aaacu  input(4) [31:0]  $end
$var wire   32  aaacv  input(3) [31:0]  $end
$var wire   32  aaacw  input(2) [31:0]  $end
$var wire   32  aaacx  input(1) [31:0]  $end
$var wire   32  aaacy  input(0) [31:0]  $end
$upscope $end
$enddefinitions  $end

$comment
All initial values are dumped below at time 0 sec = 0 timescale units.
$end

$dumpvars
b0 aaaaa
b0 aaaab
b0 aaaac
b0 aaaad
b0 aaaae
b0 aaaaf
b0 aaaag
b0 aaaah
b0 aaaai
b0 aaaaj
b0 aaaak
b0 aaaal
b0 aaaam
b0 aaaan
b0 aaaao
b0 aaaap
b0 aaaaq
b0 aaaar
b0 aaaas
b0 aaaat
b0 aaaau
b0 aaaav
b0 aaaaw
b0 aaaax
b0 aaaay
b0 aaaaz
b0 aaaba
b0 aaabb
b0 aaabc
b0 aaabd
b0 aaabe
b0 aaabf
b0 aaabg
b0 aaabh
b0 aaabi
b0 aaabj
b0 aaabk
b0 aaabl
b0 aaabm
b0 aaabn
b0 aaabo
b0 aaabp
b0 aaabq
b0 aaabr
b0 aaabs
b0 aaabt
0aaabu
b0 aaabv
b0 aaabw
b0 aaabx
b0 aaaby
b0 aaabz
b0 aaaca
b0 aaacb
b0 aaacc
b0 aaacd
b0 aaace
b0 aaacf
b0 aaacg
b0 aaach
b0 aaaci
b0 aaacj
b0 aaack
b0 aaacl
b0 aaacm
b0 aaacn
b0 aaaco
b0 aaacp
b0 aaacq
b0 aaacr
b0 aaacs
b0 aaact
b0 aaacu
b0 aaacv
b0 aaacw
b0 aaacx
b0 aaacy
$end

#10000
1aaabu
b100101 aaabx
b10110011 aaaby
b110011000 aaabz
b101010000 aaaca
b100001000 aaacb
b11000000 aaacc
b1111000 aaacd
b110101 aaace
b111 aaacf
b100101 aaacg
b10110011 aaach
b110011000 aaaci
b101010000 aaacj
b100001000 aaack
b11000000 aaacl
b1111000 aaacm
b110101 aaacn
b111 aaaco
b111 aaacp
b100 aaacq
b1 aaacr
b100101 aaacs
b11111 aaact
b11001 aaacu
b10011 aaacv
b1101 aaacw
b111 aaacx
b1 aaacy

#20000
b111 aaaaa
b110101 aaaab
b1111000 aaaac
b11000000 aaaad
b100001000 aaaae
b101010000 aaaaf
b110011000 aaaag
b10110011 aaaah
b100101 aaaai
b111 aaaaj
b110101 aaaak
b1111000 aaaal
b11000000 aaaam
b100001000 aaaan
b101010000 aaaao
b110011000 aaaap
b10110011 aaaaq
b100101 aaaar
b1 aaabk
b1 aaabv
b1 aaabw
b100110 aaabx
b10111000 aaaby
b110100100 aaabz
b101011100 aaaca
b100010100 aaacb
b11001100 aaacc
b10000100 aaacd
b1000000 aaace
b1110 aaacf
b100110 aaacg
b10111000 aaach
b110100100 aaaci
b101011100 aaacj
b100010100 aaack
b11001100 aaacl
b10000100 aaacm
b1000000 aaacn
b1110 aaaco
b100110 aaacs
b100000 aaact
b11010 aaacu
b10100 aaacv
b1110 aaacw
b1000 aaacx
b10 aaacy

#30000
b1110 aaaaa
b1000000 aaaab
b10000100 aaaac
b11001100 aaaad
b100010100 aaaae
b101011100 aaaaf
b110100100 aaaag
b10111000 aaaah
b100110 aaaai
b1110 aaaas
b1000000 aaaat
b10000100 aaaau
b11001100 aaaav
b100010100 aaaaw
b101011100 aaaax
b110100100 aaaay
b10111000 aaaaz
b100110 aaaba
b0 aaabk
b100101 aaabl
b10110011 aaabm
b110011000 aaabn
b101010000 aaabo
b100001000 aaabp
b11000000 aaabq
b1111000 aaabr
b110101 aaabs
b111 aaabt
b0 aaabv
b0 aaabw
b1001100 aaabx
b11111110 aaaby
b1000000100 aaabz
b110101010 aaaca
b101010000 aaacb
b11110110 aaacc
b10011100 aaacd
b1001010 aaace
b10000 aaacf
b1001100 aaacg
b11111110 aaach
b1000000100 aaaci
b110101010 aaacj
b101010000 aaack
b11110110 aaacl
b10011100 aaacm
b1001010 aaacn
b10000 aaaco
b1000 aaacp
b101 aaacq
b10 aaacr

#40000
b10111 aaaaa
b1111111 aaaab
b100010100 aaaac
b110110110 aaaad
b1001011000 aaaae
b1011111010 aaaaf
b1110011100 aaaag
b110110001 aaaah
b1110001 aaaai
b10111 aaaaj
b1111111 aaaak
b100010100 aaaal
b110110110 aaaam
b1001011000 aaaan
b1011111010 aaaao
b1110011100 aaaap
b110110001 aaaaq
b1110001 aaaar
b10 aaabk
b100110 aaabl
b10111000 aaabm
b110100100 aaabn
b101011100 aaabo
b100010100 aaabp
b11001100 aaabq
b10000100 aaabr
b1000000 aaabs
b1110 aaabt
b10 aaabv
b10 aaabw
b100111 aaabx
b10111101 aaaby
b110110000 aaabz
b101101000 aaaca
b100100000 aaacb
b11011000 aaacc
b10010000 aaacd
b1001011 aaace
b10101 aaacf
b100111 aaacg
b10111101 aaach
b110110000 aaaci
b101101000 aaacj
b100100000 aaack
b11011000 aaacl
b10010000 aaacm
b1001011 aaacn
b10101 aaaco
b111 aaacp
b100 aaacq
b1 aaacr
b100111 aaacs
b100001 aaact
b11011 aaacu
b10101 aaacv
b1111 aaacw
b1001 aaacx
b11 aaacy

#50000
b10101 aaaaa
b1001011 aaaab
b10010000 aaaac
b11011000 aaaad
b100100000 aaaae
b101101000 aaaaf
b110110000 aaaag
b10111101 aaaah
b100111 aaaai
b10101 aaabb
b1001011 aaabc
b10010000 aaabd
b11011000 aaabe
b100100000 aaabf
b101101000 aaabg
b110110000 aaabh
b10111101 aaabi
b100111 aaabj
b1 aaabk
b1110001 aaabl
b110110001 aaabm
b1110011100 aaabn
b1011111010 aaabo
b1001011000 aaabp
b110110110 aaabq
b100010100 aaabr
b1111111 aaabs
b10111 aaabt
b1 aaabv
b1 aaabw
b1001110 aaabx
b100000101 aaaby
b1000010011 aaabz
b110111001 aaaca
b101011111 aaacb
b100000101 aaacc
b10101011 aaacd
b1010111 aaace
b11000 aaacf
b1001110 aaacg
b100000101 aaach
b1000010011 aaaci
b110111001 aaacj
b101011111 aaack
b100000101 aaacl
b10101011 aaacm
b1010111 aaacn
b11000 aaaco
b1000 aaacp
b101 aaacq
b10 aaacr

#60000
b100110 aaaaa
b10010111 aaaab
b100101111 aaaac
b111010001 aaaad
b1001110011 aaaae
b1100010101 aaaaf
b1110110111 aaaag
b110111101 aaaah
b1110100 aaaai
b100110 aaaas
b10010111 aaaat
b100101111 aaaau
b111010001 aaaav
b1001110011 aaaaw
b1100010101 aaaax
b1110110111 aaaay
b110111101 aaaaz
b1110100 aaaba
b0 aaabk
b100111 aaabl
b10111101 aaabm
b110110000 aaabn
b101101000 aaabo
b100100000 aaabp
b11011000 aaabq
b10010000 aaabr
b1001011 aaabs
b10101 aaabt
b0 aaabv
b0 aaabw
b1110101 aaabx
b101001101 aaaby
b1001110110 aaabz
b1000001010 aaaca
b110011110 aaacb
b100110010 aaacc
b11000110 aaacd
b1100011 aaace
b11011 aaacf
b1110101 aaacg
b101001101 aaach
b1001110110 aaaci
b1000001010 aaacj
b110011110 aaack
b100110010 aaacl
b11000110 aaacm
b1100011 aaacn
b11011 aaaco
b1001 aaacp
b110 aaacq
b11 aaacr

#70000
b110010 aaaaa
b11100010 aaaab
b111011010 aaaac
b1011101000 aaaad
b1111110110 aaaae
b10100000100 aaaaf
b11000010010 aaaag
b1011111110 aaaah
b11100110 aaaai
b110010 aaaaj
b11100010 aaaak
b111011010 aaaal
b1011101000 aaaam
b1111110110 aaaan
b10100000100 aaaao
b11000010010 aaaap
b1011111110 aaaaq
b11100110 aaaar
b11 aaabk
b1110100 aaabl
b110111101 aaabm
b1110110111 aaabn
b1100010101 aaabo
b1001110011 aaabp
b111010001 aaabq
b100101111 aaabr
b10010111 aaabs
b100110 aaabt
b11 aaabv
b11 aaabw
b101000 aaabx
b11000010 aaaby
b110111100 aaabz
b101110100 aaaca
b100101100 aaacb
b11100100 aaacc
b10011100 aaacd
b1010110 aaace
b11100 aaacf
b101000 aaacg
b11000010 aaach
b110111100 aaaci
b101110100 aaacj
b100101100 aaack
b11100100 aaacl
b10011100 aaacm
b1010110 aaacn
b11100 aaaco
b111 aaacp
b100 aaacq
b1 aaacr
b101000 aaacs
b100010 aaact
b11100 aaacu
b10110 aaacv
b10000 aaacw
b1010 aaacx
b100 aaacy

#80000
b11100 aaaaa
b1010110 aaaab
b10011100 aaaac
b11100100 aaaad
b100101100 aaaae
b101110100 aaaaf
b110111100 aaaag
b11000010 aaaah
b101000 aaaai
b10 aaabk
b11100110 aaabl
b1011111110 aaabm
b11000010010 aaabn
b10100000100 aaabo
b1111110110 aaabp
b1011101000 aaabq
b111011010 aaabr
b11100010 aaabs
b110010 aaabt
b10 aaabv
b10 aaabw
b1010000 aaabx
b100001100 aaaby
b1000100010 aaabz
b111001000 aaaca
b101101110 aaacb
b100010100 aaacc
b10111010 aaacd
b1100100 aaace
b100000 aaacf
b1010000 aaacg
b100001100 aaach
b1000100010 aaaci
b111001000 aaacj
b101101110 aaack
b100010100 aaacl
b10111010 aaacm
b1100100 aaacn
b100000 aaaco
b1000 aaacp
b101 aaacq
b10 aaacr

#90000
b110101 aaaaa
b10101111 aaaab
b101001010 aaaac
b111101100 aaaad
b1010001110 aaaae
b1100110000 aaaaf
b1111010010 aaaag
b111001001 aaaah
b1110111 aaaai
b110101 aaabb
b10101111 aaabc
b101001010 aaabd
b111101100 aaabe
b1010001110 aaabf
b1100110000 aaabg
b1111010010 aaabh
b111001001 aaabi
b1110111 aaabj
b1 aaabk
b101000 aaabl
b11000010 aaabm
b110111100 aaabn
b101110100 aaabo
b100101100 aaabp
b11100100 aaabq
b10011100 aaabr
b1010110 aaabs
b11100 aaabt
b1 aaabv
b1 aaabw
b1111000 aaabx
b101010110 aaaby
b1010001000 aaabz
b1000011100 aaaca
b110110000 aaacb
b101000100 aaacc
b11011000 aaacd
b1110010 aaace
b100100 aaacf
b1111000 aaacg
b101010110 aaach
b1010001000 aaaci
b1000011100 aaacj
b110110000 aaack
b101000100 aaacl
b11011000 aaacm
b1110010 aaacn
b100100 aaaco
b1001 aaacp
b110 aaacq
b11 aaacr

#100000
b1001010 aaaaa
b100001001 aaaab
b1000000111 aaaac
b1100010101 aaaad
b10000100011 aaaae
b10100110001 aaaaf
b11000111111 aaaag
b1100010011 aaaah
b11101100 aaaai
b1001010 aaaas
b100001001 aaaat
b1000000111 aaaau
b1100010101 aaaav
b10000100011 aaaaw
b10100110001 aaaax
b11000111111 aaaay
b1100010011 aaaaz
b11101100 aaaba
b11 aaabk
b1110111 aaabl
b111001001 aaabm
b1111010010 aaabn
b1100110000 aaabo
b1010001110 aaabp
b111101100 aaabq
b101001010 aaabr
b10101111 aaabs
b110101 aaabt
b11 aaabv
b11 aaabw
b1010010 aaabx
b100010011 aaaby
b1000110001 aaabz
b111010111 aaaca
b101111101 aaacb
b100100011 aaacc
b11001001 aaacd
b1110001 aaace
b101000 aaacf
b1010010 aaacg
b100010011 aaach
b1000110001 aaaci
b111010111 aaacj
b101111101 aaack
b100100011 aaacl
b11001001 aaacm
b1110001 aaacn
b101000 aaaco
b1000 aaacp
b101 aaacq
b10 aaacr
b101001 aaacs
b100011 aaact
b11101 aaacu
b10111 aaacv
b10001 aaacw
b1011 aaacx
b101 aaacy

#110000
b1000100 aaaaa
b11000111 aaaab
b101100101 aaaac
b1000000111 aaaad
b1010101001 aaaae
b1101001011 aaaaf
b1111101101 aaaag
b111010101 aaaah
b1111010 aaaai
b10 aaabk
b11101100 aaabl
b1100010011 aaabm
b11000111111 aaabn
b10100110001 aaabo
b10000100011 aaabp
b1100010101 aaabq
b1000000111 aaabr
b100001001 aaabs
b1001010 aaabt
b10 aaabv
b10 aaabw
b1111011 aaabx
b101011111 aaaby
b1010011010 aaabz
b1000101110 aaaca
b111000010 aaacb
b101010110 aaacc
b11101010 aaacd
b10000001 aaace
b101101 aaacf
b1111011 aaacg
b101011111 aaach
b1010011010 aaaci
b1000101110 aaacj
b111000010 aaack
b101010110 aaacl
b11101010 aaacm
b10000001 aaacn
b101101 aaaco
b1001 aaacp
b110 aaacq
b11 aaacr

#120000
b1100010 aaaaa
b100110000 aaaab
b1000110100 aaaac
b1101000010 aaaad
b10001010000 aaaae
b10101011110 aaaaf
b11001101100 aaaag
b1100101000 aaaah
b11110010 aaaai
b1100010 aaabb
b100110000 aaabc
b1000110100 aaabd
b1101000010 aaabe
b10001010000 aaabf
b10101011110 aaabg
b11001101100 aaabh
b1100101000 aaabi
b11110010 aaabj
b11 aaabk
b1111010 aaabl
b111010101 aaabm
b1111101101 aaabn
b1101001011 aaabo
b1010101001 aaabp
b1000000111 aaabq
b101100101 aaabr
b11000111 aaabs
b1000100 aaabt
b11 aaabv
b11 aaabw
b1111110 aaabx
b101101000 aaaby
b1010101100 aaabz
b1001000000 aaaca
b111010100 aaacb
b101101000 aaacc
b11111100 aaacd
b10010000 aaace
b110110 aaacf
b1111110 aaacg
b101101000 aaach
b1010101100 aaaci
b1001000000 aaacj
b111010100 aaack
b101101000 aaacl
b11111100 aaacm
b10010000 aaacn
b110110 aaaco
b101010 aaacs
b100100 aaact
b11110 aaacu
b11000 aaacv
b10010 aaacw
b1100 aaacx
b110 aaacy

#130000
b1111010 aaaaa
b101010111 aaaab
b1001100001 aaaac
b1101101111 aaaad
b10001111101 aaaae
b10110001011 aaaaf
b11010011001 aaaag
b1100111101 aaaah
b11111000 aaaai
b11110010 aaabl
b1100101000 aaabm
b11001101100 aaabn
b10101011110 aaabo
b10001010000 aaabp
b1101000010 aaabq
b1000110100 aaabr
b100110000 aaabs
b1100010 aaabt

#140000
b10110000 aaaaa
b111100111 aaaab
b1101011101 aaaac
b10011010111 aaaad
b11001010001 aaaae
b11111001011 aaaaf
b100101000101 aaaag
b10010100101 aaaah
b101110110 aaaai
b11111000 aaabl
b1100111101 aaabm
b11010011001 aaabn
b10110001011 aaabo
b10001111101 aaabp
b1101101111 aaabq
b1001100001 aaabr
b101010111 aaabs
b1111010 aaabt

#150000
b11100110 aaaaa
b1001110111 aaaab
b10001011001 aaaac
b11000111111 aaaad
b100000100101 aaaae
b101000001011 aaaaf
b101111110001 aaaag
b11000001101 aaaah
b111110100 aaaai
b101110110 aaabl
b10010100101 aaabm
b100101000101 aaabn
b11111001011 aaabo
b11001010001 aaabp
b10011010111 aaabq
b1101011101 aaabr
b111100111 aaabs
b10110000 aaabt

#160000
b100011100 aaaaa
b1100000111 aaaab
b10101010101 aaaac
b11110100111 aaaad
b100111111001 aaaae
b110001001011 aaaaf
b111010011101 aaaag
b11101110101 aaaah
b1001110010 aaaai
b111110100 aaabl
b11000001101 aaabm
b101111110001 aaabn
b101000001011 aaabo
b100000100101 aaabp
b11000111111 aaabq
b10001011001 aaabr
b1001110111 aaabs
b11100110 aaabt

#170000
b101010010 aaaaa
b1110010111 aaaab
b11001010001 aaaac
b100100001111 aaaad
b101111001101 aaaae
b111010001011 aaaaf
b1000101001001 aaaag
b100011011101 aaaah
b1011110000 aaaai
b1001110010 aaabl
b11101110101 aaabm
b111010011101 aaabn
b110001001011 aaabo
b100111111001 aaabp
b11110100111 aaabq
b10101010101 aaabr
b1100000111 aaabs
b100011100 aaabt

#180000
b110001000 aaaaa
b10000100111 aaaab
b11101001101 aaaac
b101001110111 aaaad
b110110100001 aaaae
b1000011001011 aaaaf
b1001111110101 aaaag
b101001000101 aaaah
b1101101110 aaaai
b1011110000 aaabl
b100011011101 aaabm
b1000101001001 aaabn
b111010001011 aaabo
b101111001101 aaabp
b100100001111 aaabq
b11001010001 aaabr
b1110010111 aaabs
b101010010 aaabt

#190000
b110111110 aaaaa
b10010110111 aaaab
b100001001001 aaaac
b101111011111 aaaad
b111101110101 aaaae
b1001100001011 aaaaf
b1011010100001 aaaag
b101110101101 aaaah
b1111101100 aaaai
b1101101110 aaabl
b101001000101 aaabm
b1001111110101 aaabn
b1000011001011 aaabo
b110110100001 aaabp
b101001110111 aaabq
b11101001101 aaabr
b10000100111 aaabs
b110001000 aaabt

#200000
b111110100 aaaaa
b10101000111 aaaab
b100101000101 aaaac
b110101000111 aaaad
b1000101001001 aaaae
b1010101001011 aaaaf
b1100101001101 aaaag
b110100010101 aaaah
b10001101010 aaaai
b1111101100 aaabl
b101110101101 aaabm
b1011010100001 aaabn
b1001100001011 aaabo
b111101110101 aaabp
b101111011111 aaabq
b100001001001 aaabr
b10010110111 aaabs
b110111110 aaabt

#210000
b1000101010 aaaaa
b10111010111 aaaab
b101001000001 aaaac
b111010101111 aaaad
b1001100011101 aaaae
b1011110001011 aaaaf
b1101111111001 aaaag
b111001111101 aaaah
b10011101000 aaaai
b10001101010 aaabl
b110100010101 aaabm
b1100101001101 aaabn
b1010101001011 aaabo
b1000101001001 aaabp
b110101000111 aaabq
b100101000101 aaabr
b10101000111 aaabs
b111110100 aaabt

#220000
b1001100000 aaaaa
b11001100111 aaaab
b101100111101 aaaac
b1000000010111 aaaad
b1010011110001 aaaae
b1100111001011 aaaaf
b1111010100101 aaaag
b111111100101 aaaah
b10101100110 aaaai
b10011101000 aaabl
b111001111101 aaabm
b1101111111001 aaabn
b1011110001011 aaabo
b1001100011101 aaabp
b111010101111 aaabq
b101001000001 aaabr
b10111010111 aaabs
b1000101010 aaabt

#230000
b1010010110 aaaaa
b11011110111 aaaab
b110000111001 aaaac
b1000101111111 aaaad
b1011011000101 aaaae
b1110000001011 aaaaf
b10000101010001 aaaag
b1000101001101 aaaah
b10111100100 aaaai
b10101100110 aaabl
b111111100101 aaabm
b1111010100101 aaabn
b1100111001011 aaabo
b1010011110001 aaabp
b1000000010111 aaabq
b101100111101 aaabr
b11001100111 aaabs
b1001100000 aaabt

#240000
b1011001100 aaaaa
b11110000111 aaaab
b110100110101 aaaac
b1001011100111 aaaad
b1100010011001 aaaae
b1111001001011 aaaaf
b10001111111101 aaaag
b1001010110101 aaaah
b11001100010 aaaai
b10111100100 aaabl
b1000101001101 aaabm
b10000101010001 aaabn
b1110000001011 aaabo
b1011011000101 aaabp
b1000101111111 aaabq
b110000111001 aaabr
b11011110111 aaabs
b1010010110 aaabt

#250000
b1100000010 aaaaa
b100000010111 aaaab
b111000110001 aaaac
b1010001001111 aaaad
b1101001101101 aaaae
b10000010001011 aaaaf
b10011010101001 aaaag
b1010000011101 aaaah
b11011100000 aaaai
b11001100010 aaabl
b1001010110101 aaabm
b10001111111101 aaabn
b1111001001011 aaabo
b1100010011001 aaabp
b1001011100111 aaabq
b110100110101 aaabr
b11110000111 aaabs
b1011001100 aaabt

#260000
b1100111000 aaaaa
b100010100111 aaaab
b111100101101 aaaac
b1010110110111 aaaad
b1110001000001 aaaae
b10001011001011 aaaaf
b10100101010101 aaaag
b1010110000101 aaaah
b11101011110 aaaai
b11011100000 aaabl
b1010000011101 aaabm
b10011010101001 aaabn
b10000010001011 aaabo
b1101001101101 aaabp
b1010001001111 aaabq
b111000110001 aaabr
b100000010111 aaabs
b1100000010 aaabt

#270000
b1101101110 aaaaa
b100100110111 aaaab
b1000000101001 aaaac
b1011100011111 aaaad
b1111000010101 aaaae
b10010100001011 aaaaf
b10110000000001 aaaag
b1011011101101 aaaah
b11111011100 aaaai
b11101011110 aaabl
b1010110000101 aaabm
b10100101010101 aaabn
b10001011001011 aaabo
b1110001000001 aaabp
b1010110110111 aaabq
b111100101101 aaabr
b100010100111 aaabs
b1100111000 aaabt

#280000
b1110100100 aaaaa
b100111000111 aaaab
b1000100100101 aaaac
b1100010000111 aaaad
b1111111101001 aaaae
b10011101001011 aaaaf
b10111010101101 aaaag
b1100001010101 aaaah
b100001011010 aaaai
b11111011100 aaabl
b1011011101101 aaabm
b10110000000001 aaabn
b10010100001011 aaabo
b1111000010101 aaabp
b1011100011111 aaabq
b1000000101001 aaabr
b100100110111 aaabs
b1101101110 aaabt

#290000
b1111011010 aaaaa
b101001010111 aaaab
b1001000100001 aaaac
b1100111101111 aaaad
b10000110111101 aaaae
b10100110001011 aaaaf
b11000101011001 aaaag
b1100110111101 aaaah
b100011011000 aaaai
b100001011010 aaabl
b1100001010101 aaabm
b10111010101101 aaabn
b10011101001011 aaabo
b1111111101001 aaabp
b1100010000111 aaabq
b1000100100101 aaabr
b100111000111 aaabs
b1110100100 aaabt

#300000
b10000010000 aaaaa
b101011100111 aaaab
b1001100011101 aaaac
b1101101010111 aaaad
b10001110010001 aaaae
b10101111001011 aaaaf
b11010000000101 aaaag
b1101100100101 aaaah
b100101010110 aaaai
b100011011000 aaabl
b1100110111101 aaabm
b11000101011001 aaabn
b10100110001011 aaabo
b10000110111101 aaabp
b1100111101111 aaabq
b1001000100001 aaabr
b101001010111 aaabs
b1111011010 aaabt

#310000
b10001000110 aaaaa
b101101110111 aaaab
b1010000011001 aaaac
b1110010111111 aaaad
b10010101100101 aaaae
b10111000001011 aaaaf
b11011010110001 aaaag
b1110010001101 aaaah
b100111010100 aaaai
b100101010110 aaabl
b1101100100101 aaabm
b11010000000101 aaabn
b10101111001011 aaabo
b10001110010001 aaabp
b1101101010111 aaabq
b1001100011101 aaabr
b101011100111 aaabs
b10000010000 aaabt

#320000
b10001111100 aaaaa
b110000000111 aaaab
b1010100010101 aaaac
b1111000100111 aaaad
b10011100111001 aaaae
b11000001001011 aaaaf
b11100101011101 aaaag
b1110111110101 aaaah
b101001010010 aaaai
b100111010100 aaabl
b1110010001101 aaabm
b11011010110001 aaabn
b10111000001011 aaabo
b10010101100101 aaabp
b1110010111111 aaabq
b1010000011001 aaabr
b101101110111 aaabs
b10001000110 aaabt

